,ID,PullTime,Name,Value,ControlZone,CentralTime
0,44753863,2023-03-22 22:12:09.0000000 +00:00,SP6OD_Target,0.847,Config,2023-03-22 17:12:09.0000000 -05:00
1,44753862,2023-03-22 22:12:09.0000000 +00:00,SP5OD_Target,0.703,Config,2023-03-22 17:12:09.0000000 -05:00
2,44753861,2023-03-22 22:12:09.0000000 +00:00,OD_CA132,1,Config,2023-03-22 17:12:09.0000000 -05:00
3,44753860,2023-03-22 22:12:09.0000000 +00:00,OD_CA131,1,Config,2023-03-22 17:12:09.0000000 -05:00
4,44753859,2023-03-22 22:12:09.0000000 +00:00,OD_CA130,1,Config,2023-03-22 17:12:09.0000000 -05:00
5,44753858,2023-03-22 22:12:09.0000000 +00:00,OD_CA129,1,Config,2023-03-22 17:12:09.0000000 -05:00
6,44753857,2023-03-22 22:12:09.0000000 +00:00,OD_CA128,0,Config,2023-03-22 17:12:09.0000000 -05:00
7,44753856,2023-03-22 22:12:09.0000000 +00:00,OD_CA127,0,Config,2023-03-22 17:12:09.0000000 -05:00
8,44753855,2023-03-22 22:12:09.0000000 +00:00,OD_CA126,0,Config,2023-03-22 17:12:09.0000000 -05:00
9,44753854,2023-03-22 22:12:09.0000000 +00:00,OD_CA125,0,Config,2023-03-22 17:12:09.0000000 -05:00
10,44753853,2023-03-22 22:12:09.0000000 +00:00,OD_CA124,0,Config,2023-03-22 17:12:09.0000000 -05:00
11,44753852,2023-03-22 22:12:09.0000000 +00:00,OD_CA121,0,Config,2023-03-22 17:12:09.0000000 -05:00
12,44753851,2023-03-22 22:12:09.0000000 +00:00,SP6OD_Sensors_7,1,Config,2023-03-22 17:12:09.0000000 -05:00
13,44753850,2023-03-22 22:12:09.0000000 +00:00,SP6OD_Sensors_6,1,Config,2023-03-22 17:12:09.0000000 -05:00
14,44753849,2023-03-22 22:12:09.0000000 +00:00,SP6OD_Sensors_5,1,Config,2023-03-22 17:12:09.0000000 -05:00
15,44753848,2023-03-22 22:12:09.0000000 +00:00,SP6OD_Sensors_4,0,Config,2023-03-22 17:12:09.0000000 -05:00
16,44753847,2023-03-22 22:12:09.0000000 +00:00,SP6OD_Sensors_3,1,Config,2023-03-22 17:12:09.0000000 -05:00
17,44753846,2023-03-22 22:12:09.0000000 +00:00,SP6OD_Sensors_2,1,Config,2023-03-22 17:12:09.0000000 -05:00
18,44753845,2023-03-22 22:12:09.0000000 +00:00,SP6OD_Sensors_1,1,Config,2023-03-22 17:12:09.0000000 -05:00
19,44753844,2023-03-22 22:12:09.0000000 +00:00,SP5OD_Sensors_7,1,Config,2023-03-22 17:12:09.0000000 -05:00
20,44753843,2023-03-22 22:12:09.0000000 +00:00,SP5OD_Sensors_6,1,Config,2023-03-22 17:12:09.0000000 -05:00
21,44753842,2023-03-22 22:12:09.0000000 +00:00,SP5OD_Sensors_5,1,Config,2023-03-22 17:12:09.0000000 -05:00
22,44753841,2023-03-22 22:12:09.0000000 +00:00,SP5OD_Sensors_4,1,Config,2023-03-22 17:12:09.0000000 -05:00
23,44753840,2023-03-22 22:12:09.0000000 +00:00,SP5OD_Sensors_3,1,Config,2023-03-22 17:12:09.0000000 -05:00
24,44753839,2023-03-22 22:12:09.0000000 +00:00,SP5OD_Sensors_2,1,Config,2023-03-22 17:12:09.0000000 -05:00
25,44753838,2023-03-22 22:12:09.0000000 +00:00,SP5OD_Sensors_1,1,Config,2023-03-22 17:12:09.0000000 -05:00
26,44753837,2023-03-22 22:12:09.0000000 +00:00,SP4OD_Sensors_7,1,Config,2023-03-22 17:12:09.0000000 -05:00
27,44753836,2023-03-22 22:12:09.0000000 +00:00,SP4OD_Sensors_6,1,Config,2023-03-22 17:12:09.0000000 -05:00
28,44753835,2023-03-22 22:12:09.0000000 +00:00,SP4OD_Sensors_5,1,Config,2023-03-22 17:12:09.0000000 -05:00
29,44753834,2023-03-22 22:12:09.0000000 +00:00,SP4OD_Sensors_4,0,Config,2023-03-22 17:12:09.0000000 -05:00
30,44753833,2023-03-22 22:12:09.0000000 +00:00,SP4OD_Sensors_3,1,Config,2023-03-22 17:12:09.0000000 -05:00
31,44753832,2023-03-22 22:12:09.0000000 +00:00,SP4OD_Sensors_2,1,Config,2023-03-22 17:12:09.0000000 -05:00
32,44753831,2023-03-22 22:12:09.0000000 +00:00,SP4OD_Sensors_1,1,Config,2023-03-22 17:12:09.0000000 -05:00
33,44753830,2023-03-22 22:12:09.0000000 +00:00,SP1OD_Sensors_7,1,Config,2023-03-22 17:12:09.0000000 -05:00
34,44753829,2023-03-22 22:12:09.0000000 +00:00,SP1OD_Sensors_6,0,Config,2023-03-22 17:12:09.0000000 -05:00
35,44753828,2023-03-22 22:12:09.0000000 +00:00,SP1OD_Sensors_5,1,Config,2023-03-22 17:12:09.0000000 -05:00
36,44753827,2023-03-22 22:12:09.0000000 +00:00,SP1OD_Sensors_4,0,Config,2023-03-22 17:12:09.0000000 -05:00
37,44753826,2023-03-22 22:12:09.0000000 +00:00,SP1OD_Sensors_3,1,Config,2023-03-22 17:12:09.0000000 -05:00
38,44753825,2023-03-22 22:12:09.0000000 +00:00,SP1OD_Sensors_2,0,Config,2023-03-22 17:12:09.0000000 -05:00
39,44753824,2023-03-22 22:12:09.0000000 +00:00,SP1OD_Sensors_1,1,Config,2023-03-22 17:12:09.0000000 -05:00
40,44753823,2023-03-22 22:12:09.0000000 +00:00,SP1ExitPyro_Sensors_7,1,Config,2023-03-22 17:12:09.0000000 -05:00
41,44753822,2023-03-22 22:12:09.0000000 +00:00,SP1ExitPyro_Sensors_6,1,Config,2023-03-22 17:12:09.0000000 -05:00
42,44753821,2023-03-22 22:12:09.0000000 +00:00,SP1ExitPyro_Sensors_5,1,Config,2023-03-22 17:12:09.0000000 -05:00
43,44753820,2023-03-22 22:12:09.0000000 +00:00,SP1ExitPyro_Sensors_4,0,Config,2023-03-22 17:12:09.0000000 -05:00
44,44753819,2023-03-22 22:12:09.0000000 +00:00,SP1ExitPyro_Sensors_3,1,Config,2023-03-22 17:12:09.0000000 -05:00
45,44753818,2023-03-22 22:12:09.0000000 +00:00,SP1ExitPyro_Sensors_2,1,Config,2023-03-22 17:12:09.0000000 -05:00
46,44753817,2023-03-22 22:12:09.0000000 +00:00,SP1ExitPyro_Sensors_1,1,Config,2023-03-22 17:12:09.0000000 -05:00
47,44753816,2023-03-22 22:12:09.0000000 +00:00,SP1EntPyro_Sensors_7,1,Config,2023-03-22 17:12:09.0000000 -05:00
48,44753815,2023-03-22 22:12:09.0000000 +00:00,SP1EntPyro_Sensors_6,1,Config,2023-03-22 17:12:09.0000000 -05:00
49,44753814,2023-03-22 22:12:09.0000000 +00:00,SP1EntPyro_Sensors_5,1,Config,2023-03-22 17:12:09.0000000 -05:00
50,44753813,2023-03-22 22:12:09.0000000 +00:00,SP1EntPyro_Sensors_4,0,Config,2023-03-22 17:12:09.0000000 -05:00
51,44753812,2023-03-22 22:12:09.0000000 +00:00,SP1EntPyro_Sensors_3,1,Config,2023-03-22 17:12:09.0000000 -05:00
52,44753811,2023-03-22 22:12:09.0000000 +00:00,SP1EntPyro_Sensors_2,1,Config,2023-03-22 17:12:09.0000000 -05:00
53,44753810,2023-03-22 22:12:09.0000000 +00:00,SP1EntPyro_Sensors_1,1,Config,2023-03-22 17:12:09.0000000 -05:00
54,44753809,2023-03-22 22:12:09.0000000 +00:00,Gen,4,Config,2023-03-22 17:12:09.0000000 -05:00
55,44753808,2023-03-22 22:10:52.0000000 +00:00,SP6OD_Target,0.847,Config,2023-03-22 17:10:52.0000000 -05:00
56,44753807,2023-03-22 22:10:52.0000000 +00:00,SP5OD_Target,0.703,Config,2023-03-22 17:10:52.0000000 -05:00
57,44753806,2023-03-22 22:10:52.0000000 +00:00,OD_CA132,1,Config,2023-03-22 17:10:52.0000000 -05:00
58,44753805,2023-03-22 22:10:52.0000000 +00:00,OD_CA131,1,Config,2023-03-22 17:10:52.0000000 -05:00
59,44753804,2023-03-22 22:10:52.0000000 +00:00,OD_CA130,1,Config,2023-03-22 17:10:52.0000000 -05:00
60,44753803,2023-03-22 22:10:52.0000000 +00:00,OD_CA129,1,Config,2023-03-22 17:10:52.0000000 -05:00
61,44753802,2023-03-22 22:10:52.0000000 +00:00,OD_CA128,0,Config,2023-03-22 17:10:52.0000000 -05:00
62,44753801,2023-03-22 22:10:52.0000000 +00:00,OD_CA127,0,Config,2023-03-22 17:10:52.0000000 -05:00
63,44753800,2023-03-22 22:10:52.0000000 +00:00,OD_CA126,0,Config,2023-03-22 17:10:52.0000000 -05:00
64,44753799,2023-03-22 22:10:52.0000000 +00:00,OD_CA125,0,Config,2023-03-22 17:10:52.0000000 -05:00
65,44753798,2023-03-22 22:10:52.0000000 +00:00,OD_CA124,0,Config,2023-03-22 17:10:52.0000000 -05:00
66,44753797,2023-03-22 22:10:52.0000000 +00:00,OD_CA121,0,Config,2023-03-22 17:10:52.0000000 -05:00
67,44753796,2023-03-22 22:10:52.0000000 +00:00,SP6OD_Sensors_7,1,Config,2023-03-22 17:10:52.0000000 -05:00
68,44753795,2023-03-22 22:10:52.0000000 +00:00,SP6OD_Sensors_6,1,Config,2023-03-22 17:10:52.0000000 -05:00
69,44753794,2023-03-22 22:10:52.0000000 +00:00,SP6OD_Sensors_5,1,Config,2023-03-22 17:10:52.0000000 -05:00
70,44753793,2023-03-22 22:10:52.0000000 +00:00,SP6OD_Sensors_4,0,Config,2023-03-22 17:10:52.0000000 -05:00
71,44753792,2023-03-22 22:10:52.0000000 +00:00,SP6OD_Sensors_3,1,Config,2023-03-22 17:10:52.0000000 -05:00
72,44753791,2023-03-22 22:10:52.0000000 +00:00,SP6OD_Sensors_2,1,Config,2023-03-22 17:10:52.0000000 -05:00
73,44753790,2023-03-22 22:10:52.0000000 +00:00,SP6OD_Sensors_1,1,Config,2023-03-22 17:10:52.0000000 -05:00
74,44753789,2023-03-22 22:10:52.0000000 +00:00,SP5OD_Sensors_7,1,Config,2023-03-22 17:10:52.0000000 -05:00
75,44753788,2023-03-22 22:10:52.0000000 +00:00,SP5OD_Sensors_6,1,Config,2023-03-22 17:10:52.0000000 -05:00
76,44753787,2023-03-22 22:10:52.0000000 +00:00,SP5OD_Sensors_5,1,Config,2023-03-22 17:10:52.0000000 -05:00
77,44753786,2023-03-22 22:10:52.0000000 +00:00,SP5OD_Sensors_4,1,Config,2023-03-22 17:10:52.0000000 -05:00
78,44753785,2023-03-22 22:10:52.0000000 +00:00,SP5OD_Sensors_3,1,Config,2023-03-22 17:10:52.0000000 -05:00
79,44753784,2023-03-22 22:10:52.0000000 +00:00,SP5OD_Sensors_2,1,Config,2023-03-22 17:10:52.0000000 -05:00
80,44753783,2023-03-22 22:10:52.0000000 +00:00,SP5OD_Sensors_1,1,Config,2023-03-22 17:10:52.0000000 -05:00
81,44753782,2023-03-22 22:10:52.0000000 +00:00,SP4OD_Sensors_7,1,Config,2023-03-22 17:10:52.0000000 -05:00
82,44753781,2023-03-22 22:10:52.0000000 +00:00,SP4OD_Sensors_6,1,Config,2023-03-22 17:10:52.0000000 -05:00
83,44753780,2023-03-22 22:10:52.0000000 +00:00,SP4OD_Sensors_5,1,Config,2023-03-22 17:10:52.0000000 -05:00
84,44753779,2023-03-22 22:10:52.0000000 +00:00,SP4OD_Sensors_4,0,Config,2023-03-22 17:10:52.0000000 -05:00
85,44753778,2023-03-22 22:10:52.0000000 +00:00,SP4OD_Sensors_3,1,Config,2023-03-22 17:10:52.0000000 -05:00
86,44753777,2023-03-22 22:10:52.0000000 +00:00,SP4OD_Sensors_2,1,Config,2023-03-22 17:10:52.0000000 -05:00
87,44753776,2023-03-22 22:10:52.0000000 +00:00,SP4OD_Sensors_1,1,Config,2023-03-22 17:10:52.0000000 -05:00
88,44753775,2023-03-22 22:10:52.0000000 +00:00,SP1OD_Sensors_7,1,Config,2023-03-22 17:10:52.0000000 -05:00
89,44753774,2023-03-22 22:10:52.0000000 +00:00,SP1OD_Sensors_6,0,Config,2023-03-22 17:10:52.0000000 -05:00
90,44753773,2023-03-22 22:10:52.0000000 +00:00,SP1OD_Sensors_5,1,Config,2023-03-22 17:10:52.0000000 -05:00
91,44753772,2023-03-22 22:10:52.0000000 +00:00,SP1OD_Sensors_4,0,Config,2023-03-22 17:10:52.0000000 -05:00
92,44753771,2023-03-22 22:10:52.0000000 +00:00,SP1OD_Sensors_3,1,Config,2023-03-22 17:10:52.0000000 -05:00
93,44753770,2023-03-22 22:10:52.0000000 +00:00,SP1OD_Sensors_2,0,Config,2023-03-22 17:10:52.0000000 -05:00
94,44753769,2023-03-22 22:10:52.0000000 +00:00,SP1OD_Sensors_1,1,Config,2023-03-22 17:10:52.0000000 -05:00
95,44753768,2023-03-22 22:10:52.0000000 +00:00,SP1ExitPyro_Sensors_7,1,Config,2023-03-22 17:10:52.0000000 -05:00
96,44753767,2023-03-22 22:10:52.0000000 +00:00,SP1ExitPyro_Sensors_6,1,Config,2023-03-22 17:10:52.0000000 -05:00
97,44753766,2023-03-22 22:10:52.0000000 +00:00,SP1ExitPyro_Sensors_5,1,Config,2023-03-22 17:10:52.0000000 -05:00
98,44753765,2023-03-22 22:10:52.0000000 +00:00,SP1ExitPyro_Sensors_4,0,Config,2023-03-22 17:10:52.0000000 -05:00
99,44753764,2023-03-22 22:10:52.0000000 +00:00,SP1ExitPyro_Sensors_3,1,Config,2023-03-22 17:10:52.0000000 -05:00
100,44753763,2023-03-22 22:10:52.0000000 +00:00,SP1ExitPyro_Sensors_2,1,Config,2023-03-22 17:10:52.0000000 -05:00
101,44753762,2023-03-22 22:10:52.0000000 +00:00,SP1ExitPyro_Sensors_1,1,Config,2023-03-22 17:10:52.0000000 -05:00
102,44753761,2023-03-22 22:10:52.0000000 +00:00,SP1EntPyro_Sensors_7,1,Config,2023-03-22 17:10:52.0000000 -05:00
103,44753760,2023-03-22 22:10:52.0000000 +00:00,SP1EntPyro_Sensors_6,1,Config,2023-03-22 17:10:52.0000000 -05:00
104,44753759,2023-03-22 22:10:52.0000000 +00:00,SP1EntPyro_Sensors_5,1,Config,2023-03-22 17:10:52.0000000 -05:00
105,44753758,2023-03-22 22:10:52.0000000 +00:00,SP1EntPyro_Sensors_4,0,Config,2023-03-22 17:10:52.0000000 -05:00
106,44753757,2023-03-22 22:10:52.0000000 +00:00,SP1EntPyro_Sensors_3,1,Config,2023-03-22 17:10:52.0000000 -05:00
107,44753756,2023-03-22 22:10:52.0000000 +00:00,SP1EntPyro_Sensors_2,1,Config,2023-03-22 17:10:52.0000000 -05:00
108,44753755,2023-03-22 22:10:52.0000000 +00:00,SP1EntPyro_Sensors_1,1,Config,2023-03-22 17:10:52.0000000 -05:00
109,44753754,2023-03-22 22:10:52.0000000 +00:00,Gen,4,Config,2023-03-22 17:10:52.0000000 -05:00
110,44753747,2023-03-22 22:09:37.0000000 +00:00,SP6OD_Target,0.847,Config,2023-03-22 17:09:37.0000000 -05:00
111,44753746,2023-03-22 22:09:37.0000000 +00:00,SP5OD_Target,0.703,Config,2023-03-22 17:09:37.0000000 -05:00
112,44753745,2023-03-22 22:09:37.0000000 +00:00,OD_CA132,1,Config,2023-03-22 17:09:37.0000000 -05:00
113,44753744,2023-03-22 22:09:37.0000000 +00:00,OD_CA131,1,Config,2023-03-22 17:09:37.0000000 -05:00
114,44753743,2023-03-22 22:09:37.0000000 +00:00,OD_CA130,1,Config,2023-03-22 17:09:37.0000000 -05:00
115,44753742,2023-03-22 22:09:37.0000000 +00:00,OD_CA129,1,Config,2023-03-22 17:09:37.0000000 -05:00
116,44753741,2023-03-22 22:09:37.0000000 +00:00,OD_CA128,0,Config,2023-03-22 17:09:37.0000000 -05:00
117,44753740,2023-03-22 22:09:37.0000000 +00:00,OD_CA127,0,Config,2023-03-22 17:09:37.0000000 -05:00
118,44753739,2023-03-22 22:09:37.0000000 +00:00,OD_CA126,0,Config,2023-03-22 17:09:37.0000000 -05:00
119,44753738,2023-03-22 22:09:37.0000000 +00:00,OD_CA125,0,Config,2023-03-22 17:09:37.0000000 -05:00
120,44753737,2023-03-22 22:09:37.0000000 +00:00,OD_CA124,0,Config,2023-03-22 17:09:37.0000000 -05:00
121,44753736,2023-03-22 22:09:37.0000000 +00:00,OD_CA121,0,Config,2023-03-22 17:09:37.0000000 -05:00
122,44753735,2023-03-22 22:09:37.0000000 +00:00,SP6OD_Sensors_7,1,Config,2023-03-22 17:09:37.0000000 -05:00
123,44753734,2023-03-22 22:09:37.0000000 +00:00,SP6OD_Sensors_6,1,Config,2023-03-22 17:09:37.0000000 -05:00
124,44753733,2023-03-22 22:09:37.0000000 +00:00,SP6OD_Sensors_5,1,Config,2023-03-22 17:09:37.0000000 -05:00
125,44753732,2023-03-22 22:09:37.0000000 +00:00,SP6OD_Sensors_4,0,Config,2023-03-22 17:09:37.0000000 -05:00
126,44753731,2023-03-22 22:09:37.0000000 +00:00,SP6OD_Sensors_3,1,Config,2023-03-22 17:09:37.0000000 -05:00
127,44753730,2023-03-22 22:09:37.0000000 +00:00,SP6OD_Sensors_2,1,Config,2023-03-22 17:09:37.0000000 -05:00
128,44753729,2023-03-22 22:09:37.0000000 +00:00,SP6OD_Sensors_1,1,Config,2023-03-22 17:09:37.0000000 -05:00
129,44753728,2023-03-22 22:09:37.0000000 +00:00,SP5OD_Sensors_7,1,Config,2023-03-22 17:09:37.0000000 -05:00
130,44753727,2023-03-22 22:09:37.0000000 +00:00,SP5OD_Sensors_6,1,Config,2023-03-22 17:09:37.0000000 -05:00
131,44753726,2023-03-22 22:09:37.0000000 +00:00,SP5OD_Sensors_5,1,Config,2023-03-22 17:09:37.0000000 -05:00
132,44753725,2023-03-22 22:09:37.0000000 +00:00,SP5OD_Sensors_4,1,Config,2023-03-22 17:09:37.0000000 -05:00
133,44753724,2023-03-22 22:09:37.0000000 +00:00,SP5OD_Sensors_3,1,Config,2023-03-22 17:09:37.0000000 -05:00
134,44753723,2023-03-22 22:09:37.0000000 +00:00,SP5OD_Sensors_2,1,Config,2023-03-22 17:09:37.0000000 -05:00
135,44753722,2023-03-22 22:09:37.0000000 +00:00,SP5OD_Sensors_1,1,Config,2023-03-22 17:09:37.0000000 -05:00
136,44753721,2023-03-22 22:09:37.0000000 +00:00,SP4OD_Sensors_7,1,Config,2023-03-22 17:09:37.0000000 -05:00
137,44753720,2023-03-22 22:09:37.0000000 +00:00,SP4OD_Sensors_6,1,Config,2023-03-22 17:09:37.0000000 -05:00
138,44753719,2023-03-22 22:09:37.0000000 +00:00,SP4OD_Sensors_5,1,Config,2023-03-22 17:09:37.0000000 -05:00
139,44753718,2023-03-22 22:09:37.0000000 +00:00,SP4OD_Sensors_4,0,Config,2023-03-22 17:09:37.0000000 -05:00
140,44753717,2023-03-22 22:09:37.0000000 +00:00,SP4OD_Sensors_3,1,Config,2023-03-22 17:09:37.0000000 -05:00
141,44753716,2023-03-22 22:09:37.0000000 +00:00,SP4OD_Sensors_2,1,Config,2023-03-22 17:09:37.0000000 -05:00
142,44753715,2023-03-22 22:09:37.0000000 +00:00,SP4OD_Sensors_1,1,Config,2023-03-22 17:09:37.0000000 -05:00
143,44753714,2023-03-22 22:09:37.0000000 +00:00,SP1OD_Sensors_7,1,Config,2023-03-22 17:09:37.0000000 -05:00
144,44753713,2023-03-22 22:09:37.0000000 +00:00,SP1OD_Sensors_6,0,Config,2023-03-22 17:09:37.0000000 -05:00
145,44753712,2023-03-22 22:09:37.0000000 +00:00,SP1OD_Sensors_5,1,Config,2023-03-22 17:09:37.0000000 -05:00
146,44753711,2023-03-22 22:09:37.0000000 +00:00,SP1OD_Sensors_4,0,Config,2023-03-22 17:09:37.0000000 -05:00
147,44753710,2023-03-22 22:09:37.0000000 +00:00,SP1OD_Sensors_3,1,Config,2023-03-22 17:09:37.0000000 -05:00
148,44753709,2023-03-22 22:09:37.0000000 +00:00,SP1OD_Sensors_2,0,Config,2023-03-22 17:09:37.0000000 -05:00
149,44753708,2023-03-22 22:09:37.0000000 +00:00,SP1OD_Sensors_1,1,Config,2023-03-22 17:09:37.0000000 -05:00
150,44753707,2023-03-22 22:09:37.0000000 +00:00,SP1ExitPyro_Sensors_7,1,Config,2023-03-22 17:09:37.0000000 -05:00
151,44753706,2023-03-22 22:09:37.0000000 +00:00,SP1ExitPyro_Sensors_6,1,Config,2023-03-22 17:09:37.0000000 -05:00
152,44753705,2023-03-22 22:09:37.0000000 +00:00,SP1ExitPyro_Sensors_5,1,Config,2023-03-22 17:09:37.0000000 -05:00
153,44753704,2023-03-22 22:09:37.0000000 +00:00,SP1ExitPyro_Sensors_4,0,Config,2023-03-22 17:09:37.0000000 -05:00
154,44753703,2023-03-22 22:09:37.0000000 +00:00,SP1ExitPyro_Sensors_3,1,Config,2023-03-22 17:09:37.0000000 -05:00
155,44753702,2023-03-22 22:09:37.0000000 +00:00,SP1ExitPyro_Sensors_2,1,Config,2023-03-22 17:09:37.0000000 -05:00
156,44753701,2023-03-22 22:09:37.0000000 +00:00,SP1ExitPyro_Sensors_1,1,Config,2023-03-22 17:09:37.0000000 -05:00
157,44753700,2023-03-22 22:09:37.0000000 +00:00,SP1EntPyro_Sensors_7,1,Config,2023-03-22 17:09:37.0000000 -05:00
158,44753699,2023-03-22 22:09:37.0000000 +00:00,SP1EntPyro_Sensors_6,1,Config,2023-03-22 17:09:37.0000000 -05:00
159,44753698,2023-03-22 22:09:37.0000000 +00:00,SP1EntPyro_Sensors_5,1,Config,2023-03-22 17:09:37.0000000 -05:00
160,44753697,2023-03-22 22:09:37.0000000 +00:00,SP1EntPyro_Sensors_4,0,Config,2023-03-22 17:09:37.0000000 -05:00
161,44753696,2023-03-22 22:09:37.0000000 +00:00,SP1EntPyro_Sensors_3,1,Config,2023-03-22 17:09:37.0000000 -05:00
162,44753695,2023-03-22 22:09:37.0000000 +00:00,SP1EntPyro_Sensors_2,1,Config,2023-03-22 17:09:37.0000000 -05:00
163,44753694,2023-03-22 22:09:37.0000000 +00:00,SP1EntPyro_Sensors_1,1,Config,2023-03-22 17:09:37.0000000 -05:00
164,44753693,2023-03-22 22:09:37.0000000 +00:00,Gen,4,Config,2023-03-22 17:09:37.0000000 -05:00
