InSitu_CarrID,InSitu_BONum,CA41_Power,CA42_Power,CA43_Power,CA44_Power,CA45_Power,CA46_Power,CA47_Power,CA48_Power,CAEX1_Power,CAEX2_Power,CAEX3_Power,Active Cathodes,T2/Power Coeff,Carrier Power,Y1_SP1ExitPyro,Y2_SP1ExitPyro,Y3_SP1ExitPyro,Y4_SP1ExitPyro,Y5_SP1ExitPyro,Y6_SP1ExitPyro,Y7_SP1ExitPyro,Pyro Active Sensors,T2,Gen,Takttime,Coater Status
67.0,1185669.0,72.93165241906402,72.99610097692647,72.80000305175781,73.0999984741211,72.80000305175781,72.90527667474309,73.0,73.0999984741211,72.99174324525606,72.99495420543425,72.98417455340744,11,9.55,72.96703142610934,239.8708021181439,258.6620630386773,252.73486335124446,264.18726880834737,258.93779992619784,253.97821041422154,234.25456577266027,Y1_SP1ExitPyro Y2_SP1ExitPyro Y3_SP1ExitPyro Y4_SP1ExitPyro Y5_SP1ExitPyro Y6_SP1ExitPyro Y7_SP1ExitPyro,591.0588235294117,4,210,Coater is running
67.0,1185669.0,72.93115229208367,72.99616258677187,72.80000305175781,73.0999984741211,72.80000305175781,72.90519332024637,73.0,73.0999984741211,72.99051933202463,72.99480820563254,72.98442461689761,11,9.55,72.96703142610934,239.92345316523085,258.6670191917678,252.75575721344615,264.2441063874462,258.94338775703653,254.00455907128466,234.29708951859658,Y1_SP1ExitPyro Y2_SP1ExitPyro Y3_SP1ExitPyro Y4_SP1ExitPyro Y5_SP1ExitPyro Y6_SP1ExitPyro Y7_SP1ExitPyro,591.0588235294117,4,210,Coater is running
67.0,1185669.0,72.92917655638358,72.99640597450305,72.80000305175781,73.0999984741211,72.80000305175781,72.90486403096301,73.0,73.0999984741211,72.99112064288988,72.99090922962536,72.98541248474767,11,9.55,72.96703142610934,240.08498890657,258.6978846221343,252.7980559915619,264.4135073768664,258.8919885486175,254.0768489716673,234.37266517945628,Y1_SP1ExitPyro Y2_SP1ExitPyro Y3_SP1ExitPyro Y4_SP1ExitPyro Y5_SP1ExitPyro Y6_SP1ExitPyro Y7_SP1ExitPyro,591.0588235294117,4,210,Coater is running
67.0,1185669.0,72.93653158071089,72.99653066518356,72.80306422953703,73.0999984741211,72.80000305175781,72.90489941032565,73.0,73.0999984741211,72.99142870221819,72.98571450369698,72.980408462213,11,9.55,72.96322922642456,229.46569351663396,245.0657531738281,239.42883714169872,250.40383592722367,245.39024645746971,241.2552435193743,223.64755225668148,Y1_SP1ExitPyro Y2_SP1ExitPyro Y3_SP1ExitPyro Y4_SP1ExitPyro Y5_SP1ExitPyro Y6_SP1ExitPyro Y7_SP1ExitPyro,581.3071748878924,4,210,Coater is running
67.0,1185669.0,72.93653158071089,72.99653066518356,72.80306422953703,73.0999984741211,72.80000305175781,72.90489941032565,73.0,73.0999984741211,72.99142870221819,72.98571450369698,72.980408462213,11,9.55,72.96361770746944,229.46569351663396,245.0657531738281,239.42883714169872,250.40383592722367,245.39024645746971,241.2552435193743,223.64755225668148,Y1_SP1ExitPyro Y2_SP1ExitPyro Y3_SP1ExitPyro Y4_SP1ExitPyro Y5_SP1ExitPyro Y6_SP1ExitPyro Y7_SP1ExitPyro,581.2383966244726,4,210,Coater is running
561.0,1185671.0,72.93240196388085,73.0,72.80629666201717,73.0999984741211,72.80000305175781,72.9000015258789,73.00186477341019,73.0999984741211,72.99417258309317,72.98135226589817,72.98414942601345,11,9.55,72.9670062250039,239.74475624066687,261.61601630791085,254.4269699772477,265.22853273333925,259.91743540374824,252.1722385788853,234.80983657659073,Y1_SP1ExitPyro Y2_SP1ExitPyro Y3_SP1ExitPyro Y4_SP1ExitPyro Y5_SP1ExitPyro Y6_SP1ExitPyro Y7_SP1ExitPyro,580.4475524475524,4,210,Coater is running
550.0,1185672.0,72.93234671133536,73.0,72.81654600920501,73.0999984741211,72.80000305175781,72.9000015258789,73.0,73.0999984741211,73.0,73.0,72.98567923086661,11,9.55,72.9638909520049,240.77135650258006,259.79039690936054,253.922196564851,264.9818256896219,259.67958253460165,253.01963014955874,234.37088811426986,Y1_SP1ExitPyro Y2_SP1ExitPyro Y3_SP1ExitPyro Y4_SP1ExitPyro Y5_SP1ExitPyro Y6_SP1ExitPyro Y7_SP1ExitPyro,586.0518962075848,4,210,Coater is running
