,PullTime,ControlZone,Gen,BONumber,CarrierNum,Gap_SP1,Gap Time Min,Active Time Min,Mean_T2,Mean_SP1EntPyro,Mean_SP1ExitPyro,Mean_SP1OD,Target_T2,Target_SP1EntPyro,Target_SP1ExitPyro,Target_SP1OD,Del_SP1EntPyro,Del_SP1ExitPyro,Del_SP1OD,UCL_T2,LCL_T2,KSigmaPlus2_T2,KSigmaMinus2_T2,UAL_SP1EntPyro,LAL_SP1EntPyro,UAL_SP1ExitPyro,LAL_SP1ExitPyro,UAL_SP1OD,LAL_SP1OD,Carrier Power,CA41_Carr_Pow,CA42_Carr_Pow,CA43_Carr_Pow,CA44_Carr_Pow,CA45_Carr_Pow,CA46_Carr_Pow,CA47_Carr_Pow,CA48_Carr_Pow,CAEX1_Carr_Pow,CAEX2_Carr_Pow,CAEX3_Carr_Pow,Number Cathodes,Tot_Carr_Pow,T2/Power Coeff,Disregard,Eyes Open,Carr Pow Change,Carr Since Carr Pow Change,Alarm_T2,Risk,New Power_SP1,Current Power_SP1,TaktTime,Sensors_SP1EntPyro,Sensors_SP1ExitPyro,Sensors_SP1OD,Program Version,Del_T2,Alarm1_T2_Cntr,Alarm5_T2_Cntr,Alarm2_T2_Cntr,Alarm_SP1EntPyro,Alarm_SP1ExitPyro,Alarm_SP1OD,A2,A5,Alarm,New Power
0,2023-04-19 17:47:13,SP1,Gen4,1188350,21,0,,0.0,589.0744680851063,219.31800989328778,250.57235763083378,0.1262221954807842,590,225,252,0.123,-5.68199010671222,-1.4276423691662217,0.0032221954807842013,8.67,-8.67,4.9,-4.9,12,-12,9,-9,0.03,-0.03,73.49383895657074,73.4000015258789,73.5,73.31090335936342,73.5999984741211,73.5999984741211,73.44360275630137,73.5,73.5999984741211,73.49431288298837,73.48909969239439,73.49431288298837,11.0,808.4322285222781,9.55,0,0.0,0,1,,,,73.50909077037464,210,"Y1, Y2, Y3, Y5, Y6, Y7","Y1, Y2, Y3, Y5, Y6, Y7","Y1, Y3, Y5, Y7",v31 Sched db,-0.9255319148936678,,,,0,0,0,,,,
1,2023-04-19 17:49:47,SP1,Gen4,1188351,66,0,,,591.5806451612904,220.04876039363137,251.4998664090466,0.09585900765715714,590,225,252,0.123,-4.951239606368631,-0.5001335909533964,-0.027140992342842854,8.67,-8.67,4.9,-4.9,12,-12,9,-9,0.03,-0.03,73.49177087786279,73.38436155635598,73.5,73.32227759338669,73.5999984741211,73.5999984741211,73.41658895049615,73.5,73.5999984741211,73.49146932448257,73.49478680940601,73.5,11.0,808.4094796564906,9.55,0,,0,2,,,,73.49090922962536,210,"Y1, Y2, Y3, Y5, Y6, Y7","Y1, Y2, Y3, Y5, Y6, Y7","Y1, Y3, Y5, Y7",v31 Sched db,1.580645161290363,,,,0,0,0,,,,
2,2023-04-19 17:51:46,SP1,Gen4,1188351,66,0,,0.0,591.5806451612904,220.04876039363137,251.4998664090466,0.09585900765715714,590,225,252,0.123,-4.951239606368631,-0.5001335909533964,-0.027140992342842854,8.67,-8.67,4.9,-4.9,12,-12,9,-9,0.03,-0.03,73.49177087786279,73.38436155635598,73.5,73.32227759338669,73.5999984741211,73.5999984741211,73.41658895049615,73.5,73.5999984741211,73.49146932448257,73.49478680940601,73.5,11.0,808.4094796564906,9.55,0,0.0,0,3,,,,73.4818184592507,210,"Y1, Y2, Y3, Y5, Y6, Y7","Y1, Y2, Y3, Y5, Y6, Y7","Y1, Y3, Y5, Y7",v31 Sched db,1.580645161290363,0.0,0.0,1.0,0,0,0,1,0,0,0
3,2023-04-19 17:56:05,SP1,Gen4,1188352,540,0,,,583.8587570621469,218.26736775747375,246.1033103029493,0.10438582767733186,590,225,252,0.123,-6.73263224252625,-5.896689697050704,-0.01861417232266814,8.67,-8.67,4.9,-4.9,12,-12,9,-9,0.03,-0.03,73.49142620081739,73.4000015258789,73.49620858865892,73.29810691218806,73.5999984741211,73.5999984741211,73.43317637511339,73.5,73.59431135710946,73.49478680940601,73.49478680940601,73.49431288298837,11.0,808.4056882089915,9.55,0,,0,4,,,,73.5,210,"Y1, Y2, Y3, Y5, Y6, Y7","Y1, Y2, Y3, Y5, Y6, Y7","Y1, Y3, Y5, Y7",v31 Sched db,-6.1412429378531215,,,,0,0,0,,,,
4,2023-04-19 17:58:50,SP1,Gen4,1188353,68,0,,0.0,590.022346368715,219.687457140202,249.14917054826208,0.1324212970447948,590,225,252,0.123,-5.312542859797986,-2.8508294517379227,0.009421297044794802,8.67,-8.67,4.9,-4.9,12,-12,9,-9,0.03,-0.03,73.49319261438319,73.4000015258789,73.49668251507656,73.30900765369289,73.5999984741211,73.5999984741211,73.45308085075487,73.47725109805428,73.5999984741211,73.5,73.48909969239439,73.5,11.0,808.4251187582151,9.55,0,0.0,0,5,,,,73.4818184592507,210,"Y1, Y2, Y3, Y5, Y6, Y7","Y1, Y2, Y3, Y5, Y6, Y7","Y1, Y3, Y5, Y7",v31 Sched db,0.02234636871503426,,,,0,0,0,,,,
5,2023-04-19 18:02:20,SP1,Gen4,1188361,11,0,,,595.7076023391813,218.2342614863469,247.8258223064875,0.13225847183368594,590,225,252,0.123,-6.765738513653105,-4.17417769351249,0.009258471833685944,8.67,-8.67,4.9,-4.9,12,-12,9,-9,0.03,-0.03,73.49043530320772,73.4000015258789,73.5,73.31090335936342,73.5999984741211,73.5999984741211,73.42274999392541,73.50568711701163,73.58293712308621,73.5,73.47251226777713,73.5,11.0,808.3947883352849,9.55,0,,0,6,,,,73.49090922962536,210,"Y1, Y2, Y3, Y5, Y6, Y7","Y1, Y2, Y3, Y5, Y6, Y7","Y1, Y3, Y5, Y7",v31 Sched db,5.707602339181335,0.0,1.0,2.0,0,0,0,1,1,0,0
6,,SP1,Gen4,1188361,11,0,,0.0,595.7076023391813,218.2342614863469,247.8258223064875,0.13225847183368594,590,225,252,0.123,-6.765738513653105,-4.17417769351249,0.009258471833685944,8.67,-8.67,4.9,-4.9,12,-12,9,-9,0.03,-0.03,73.49383895657074,73.4000015258789,73.5,73.31090335936342,73.5999984741211,73.5999984741211,73.44360275630137,73.5,73.5999984741211,73.49431288298837,73.48909969239439,73.49431288298837,,808.4322285222781,9.55,0,0.0,0,7,,,,73.49090922962536,210,"Y1, Y2, Y3, Y5, Y6, Y7","Y1, Y2, Y3, Y5, Y6, Y7","Y1, Y3, Y5, Y7",v31 Sched db,5.0,,,,0,0,0,,,,
7,,SP1,Gen4,1188361,11,0,,,595.7076023391813,218.2342614863469,247.8258223064875,0.13225847183368594,590,225,252,0.123,-6.765738513653105,-4.17417769351249,0.009258471833685944,8.67,-8.67,4.9,-4.9,12,-12,9,-9,0.03,-0.03,73.49177087786279,73.38436155635598,73.5,73.32227759338669,73.5999984741211,73.5999984741211,73.41658895049615,73.5,73.5999984741211,73.49146932448257,73.49478680940601,73.5,,808.4094796564906,9.55,0,,0,8,,,,73.49090922962536,210,"Y1, Y2, Y3, Y5, Y6, Y7","Y1, Y2, Y3, Y5, Y6, Y7","Y1, Y3, Y5, Y7",v31 Sched db,5.0,,,,0,0,0,,,,
8,,SP1,Gen4,1188361,11,0,,0.0,595.7076023391813,218.2342614863469,247.8258223064875,0.13225847183368594,590,225,252,0.123,-6.765738513653105,-4.17417769351249,0.009258471833685944,8.67,-8.67,4.9,-4.9,12,-12,9,-9,0.03,-0.03,73.49177087786279,73.38436155635598,73.5,73.32227759338669,73.5999984741211,73.5999984741211,73.41658895049615,73.5,73.5999984741211,73.49146932448257,73.49478680940601,73.5,,808.4094796564906,9.55,0,0.0,0,9,,,,73.49090922962536,210,"Y1, Y2, Y3, Y5, Y6, Y7","Y1, Y2, Y3, Y5, Y6, Y7","Y1, Y3, Y5, Y7",v31 Sched db,5.0,0.0,2.0,3.0,0,0,0,2,1,0,0
9,,SP1,Gen4,1188361,11,0,,,595.7076023391813,218.2342614863469,247.8258223064875,0.13225847183368594,590,225,252,0.123,-6.765738513653105,-4.17417769351249,0.009258471833685944,8.67,-8.67,4.9,-4.9,12,-12,9,-9,0.03,-0.03,73.49142620081739,73.4000015258789,73.49620858865892,73.29810691218806,73.5999984741211,73.5999984741211,73.43317637511339,73.5,73.59431135710946,73.49478680940601,73.49478680940601,73.49431288298837,,808.4056882089915,9.55,0,,0,10,,,,73.49090922962536,210,"Y1, Y2, Y3, Y5, Y6, Y7","Y1, Y2, Y3, Y5, Y6, Y7","Y1, Y3, Y5, Y7",v31 Sched db,5.0,,,,0,0,0,,,,
10,,SP1,Gen4,1188361,11,0,,0.0,595.7076023391813,218.2342614863469,247.8258223064875,0.13225847183368594,590,225,252,0.123,-6.765738513653105,-4.17417769351249,0.009258471833685944,8.67,-8.67,4.9,-4.9,12,-12,9,-9,0.03,-0.03,73.49319261438319,73.4000015258789,73.49668251507656,73.30900765369289,73.5999984741211,73.5999984741211,73.45308085075487,73.47725109805428,73.5999984741211,73.5,73.48909969239439,73.5,,808.4251187582151,9.55,0,0.0,0,11,,,,73.49090922962536,210,"Y1, Y2, Y3, Y5, Y6, Y7","Y1, Y2, Y3, Y5, Y6, Y7","Y1, Y3, Y5, Y7",v31 Sched db,5.0,,,,0,0,0,,,,
11,,SP1,Gen4,1188361,11,0,,,595.7076023391813,218.2342614863469,247.8258223064875,0.13225847183368594,590,225,252,0.123,-6.765738513653105,-4.17417769351249,0.009258471833685944,8.67,-8.67,4.9,-4.9,12,-12,9,-9,0.03,-0.03,73.49043530320772,73.4000015258789,73.5,73.31090335936342,73.5999984741211,73.5999984741211,73.42274999392541,73.50568711701163,73.58293712308621,73.5,73.47251226777713,73.5,,808.3947883352849,9.55,0,,0,12,,,,73.49090922962536,210,"Y1, Y2, Y3, Y5, Y6, Y7","Y1, Y2, Y3, Y5, Y6, Y7","Y1, Y3, Y5, Y7",v31 Sched db,5.0,0.0,3.0,4.0,0,0,0,3,1,0,0
12,,SP1,Gen4,1188361,11,0,,0.0,595.7076023391813,218.2342614863469,247.8258223064875,0.13225847183368594,590,225,252,0.123,-6.765738513653105,-4.17417769351249,0.009258471833685944,8.67,-8.67,4.9,-4.9,12,-12,9,-9,0.03,-0.03,73.49383895657074,73.4000015258789,73.5,73.31090335936342,73.5999984741211,73.5999984741211,73.44360275630137,73.5,73.5999984741211,73.49431288298837,73.48909969239439,73.49431288298837,,808.4322285222781,9.55,0,0.0,0,13,,,,73.49090922962536,210,"Y1, Y2, Y3, Y5, Y6, Y7","Y1, Y2, Y3, Y5, Y6, Y7","Y1, Y3, Y5, Y7",v31 Sched db,5.0,,,,0,0,0,,,,
13,,SP1,Gen4,1188361,11,0,,,595.7076023391813,218.2342614863469,247.8258223064875,0.13225847183368594,590,225,252,0.123,-6.765738513653105,-4.17417769351249,0.009258471833685944,8.67,-8.67,4.9,-4.9,12,-12,9,-9,0.03,-0.03,73.49177087786279,73.38436155635598,73.5,73.32227759338669,73.5999984741211,73.5999984741211,73.41658895049615,73.5,73.5999984741211,73.49146932448257,73.49478680940601,73.5,,808.4094796564906,9.55,0,,0,14,,,,73.49090922962536,210,"Y1, Y2, Y3, Y5, Y6, Y7","Y1, Y2, Y3, Y5, Y6, Y7","Y1, Y3, Y5, Y7",v31 Sched db,5.0,,,,0,0,0,,,,
14,,SP1,Gen4,1188361,11,0,,0.0,595.7076023391813,218.2342614863469,247.8258223064875,0.13225847183368594,590,225,252,0.123,-6.765738513653105,-4.17417769351249,0.009258471833685944,8.67,-8.67,4.9,-4.9,12,-12,9,-9,0.03,-0.03,73.49177087786279,73.38436155635598,73.5,73.32227759338669,73.5999984741211,73.5999984741211,73.41658895049615,73.5,73.5999984741211,73.49146932448257,73.49478680940601,73.5,,808.4094796564906,9.55,0,0.0,0,15,,,,73.49090922962536,210,"Y1, Y2, Y3, Y5, Y6, Y7","Y1, Y2, Y3, Y5, Y6, Y7","Y1, Y3, Y5, Y7",v31 Sched db,5.0,0.0,4.0,5.0,0,0,0,4,1,0,0
15,,SP1,Gen4,1188361,11,0,,,595.7076023391813,218.2342614863469,247.8258223064875,0.13225847183368594,590,225,252,0.123,-6.765738513653105,-4.17417769351249,0.009258471833685944,8.67,-8.67,4.9,-4.9,12,-12,9,-9,0.03,-0.03,73.49142620081739,73.4000015258789,73.49620858865892,73.29810691218806,73.5999984741211,73.5999984741211,73.43317637511339,73.5,73.59431135710946,73.49478680940601,73.49478680940601,73.49431288298837,,808.4056882089915,9.55,0,,0,16,,,,73.49090922962536,210,"Y1, Y2, Y3, Y5, Y6, Y7","Y1, Y2, Y3, Y5, Y6, Y7","Y1, Y3, Y5, Y7",v31 Sched db,5.0,,,,0,0,0,,,,
16,,SP1,Gen4,1188361,11,0,,0.0,595.7076023391813,218.2342614863469,247.8258223064875,0.13225847183368594,590,225,252,0.123,-6.765738513653105,-4.17417769351249,0.009258471833685944,8.67,-8.67,4.9,-4.9,12,-12,9,-9,0.03,-0.03,73.49319261438319,73.4000015258789,73.49668251507656,73.30900765369289,73.5999984741211,73.5999984741211,73.45308085075487,73.47725109805428,73.5999984741211,73.5,73.48909969239439,73.5,,808.4251187582151,9.55,0,0.0,0,17,,,,73.49090922962536,210,"Y1, Y2, Y3, Y5, Y6, Y7","Y1, Y2, Y3, Y5, Y6, Y7","Y1, Y3, Y5, Y7",v31 Sched db,5.0,,,,0,0,0,,,,
17,,SP1,Gen4,1188361,11,0,,,595.7076023391813,218.2342614863469,247.8258223064875,0.13225847183368594,590,225,252,0.123,-6.765738513653105,-4.17417769351249,0.009258471833685944,8.67,-8.67,4.9,-4.9,12,-12,9,-9,0.03,-0.03,73.49043530320772,73.4000015258789,73.5,73.31090335936342,73.5999984741211,73.5999984741211,73.42274999392541,73.50568711701163,73.58293712308621,73.5,73.47251226777713,73.5,,808.3947883352849,9.55,0,,0,18,,,,73.49090922962536,210,"Y1, Y2, Y3, Y5, Y6, Y7","Y1, Y2, Y3, Y5, Y6, Y7","Y1, Y3, Y5, Y7",v31 Sched db,5.0,0.0,5.0,6.0,0,0,0,5,1,0,0
18,,SP1,Gen4,1188361,11,0,,0.0,595.7076023391813,218.2342614863469,247.8258223064875,0.13225847183368594,590,225,252,0.123,-6.765738513653105,-4.17417769351249,0.009258471833685944,8.67,-8.67,4.9,-4.9,12,-12,9,-9,0.03,-0.03,73.49383895657074,73.4000015258789,73.5,73.31090335936342,73.5999984741211,73.5999984741211,73.44360275630137,73.5,73.5999984741211,73.49431288298837,73.48909969239439,73.49431288298837,,808.4322285222781,9.55,0,0.0,0,19,,,,73.49090922962536,210,"Y1, Y2, Y3, Y5, Y6, Y7","Y1, Y2, Y3, Y5, Y6, Y7","Y1, Y3, Y5, Y7",v31 Sched db,-5.0,,,,0,0,0,,,,
19,,SP1,Gen4,1188361,11,0,,,595.7076023391813,218.2342614863469,247.8258223064875,0.13225847183368594,590,225,252,0.123,-6.765738513653105,-4.17417769351249,0.009258471833685944,8.67,-8.67,4.9,-4.9,12,-12,9,-9,0.03,-0.03,73.49177087786279,73.38436155635598,73.5,73.32227759338669,73.5999984741211,73.5999984741211,73.41658895049615,73.5,73.5999984741211,73.49146932448257,73.49478680940601,73.5,,808.4094796564906,9.55,0,,0,20,,,,73.49090922962536,210,"Y1, Y2, Y3, Y5, Y6, Y7","Y1, Y2, Y3, Y5, Y6, Y7","Y1, Y3, Y5, Y7",v31 Sched db,-5.0,,,,0,0,0,,,,
20,,SP1,Gen4,1188361,11,0,,0.0,595.7076023391813,218.2342614863469,247.8258223064875,0.13225847183368594,590,225,252,0.123,-6.765738513653105,-4.17417769351249,0.009258471833685944,8.67,-8.67,4.9,-4.9,12,-12,9,-9,0.03,-0.03,73.49177087786279,73.38436155635598,73.5,73.32227759338669,73.5999984741211,73.5999984741211,73.41658895049615,73.5,73.5999984741211,73.49146932448257,73.49478680940601,73.5,,808.4094796564906,9.55,0,0.0,0,21,,,,73.49090922962536,210,"Y1, Y2, Y3, Y5, Y6, Y7","Y1, Y2, Y3, Y5, Y6, Y7","Y1, Y3, Y5, Y7",v31 Sched db,-5.0,0.0,-1.0,-1.0,0,0,0,4,1,0,0
21,,SP1,Gen4,1188361,11,0,,,595.7076023391813,218.2342614863469,247.8258223064875,0.13225847183368594,590,225,252,0.123,-6.765738513653105,-4.17417769351249,0.009258471833685944,8.67,-8.67,4.9,-4.9,12,-12,9,-9,0.03,-0.03,73.49142620081739,73.4000015258789,73.49620858865892,73.29810691218806,73.5999984741211,73.5999984741211,73.43317637511339,73.5,73.59431135710946,73.49478680940601,73.49478680940601,73.49431288298837,,808.4056882089915,9.55,0,,0,22,,,,73.49090922962536,210,"Y1, Y2, Y3, Y5, Y6, Y7","Y1, Y2, Y3, Y5, Y6, Y7","Y1, Y3, Y5, Y7",v31 Sched db,-5.0,,,,0,0,0,,,,
22,,SP1,Gen4,1188361,11,0,,0.0,595.7076023391813,218.2342614863469,247.8258223064875,0.13225847183368594,590,225,252,0.123,-6.765738513653105,-4.17417769351249,0.009258471833685944,8.67,-8.67,4.9,-4.9,12,-12,9,-9,0.03,-0.03,73.49319261438319,73.4000015258789,73.49668251507656,73.30900765369289,73.5999984741211,73.5999984741211,73.45308085075487,73.47725109805428,73.5999984741211,73.5,73.48909969239439,73.5,,808.4251187582151,9.55,0,0.0,0,23,,,,73.49090922962536,210,"Y1, Y2, Y3, Y5, Y6, Y7","Y1, Y2, Y3, Y5, Y6, Y7","Y1, Y3, Y5, Y7",v31 Sched db,-5.0,,,,0,0,0,,,,
23,,SP1,Gen4,1188361,11,0,,,595.7076023391813,218.2342614863469,247.8258223064875,0.13225847183368594,590,225,252,0.123,-6.765738513653105,-4.17417769351249,0.009258471833685944,8.67,-8.67,4.9,-4.9,12,-12,9,-9,0.03,-0.03,73.49043530320772,73.4000015258789,73.5,73.31090335936342,73.5999984741211,73.5999984741211,73.42274999392541,73.50568711701163,73.58293712308621,73.5,73.47251226777713,73.5,,808.3947883352849,9.55,0,,0,24,,,,73.49090922962536,210,"Y1, Y2, Y3, Y5, Y6, Y7","Y1, Y2, Y3, Y5, Y6, Y7","Y1, Y3, Y5, Y7",v31 Sched db,-5.0,0.0,-2.0,-2.0,0,0,0,3,1,0,0
24,,SP1,Gen4,1188361,11,0,,0.0,595.7076023391813,218.2342614863469,247.8258223064875,0.13225847183368594,590,225,252,0.123,-6.765738513653105,-4.17417769351249,0.009258471833685944,8.67,-8.67,4.9,-4.9,12,-12,9,-9,0.03,-0.03,73.49383895657074,73.4000015258789,73.5,73.31090335936342,73.5999984741211,73.5999984741211,73.44360275630137,73.5,73.5999984741211,73.49431288298837,73.48909969239439,73.49431288298837,,808.4322285222781,9.55,0,0.0,0,25,,,,73.49090922962536,210,"Y1, Y2, Y3, Y5, Y6, Y7","Y1, Y2, Y3, Y5, Y6, Y7","Y1, Y3, Y5, Y7",v31 Sched db,-5.0,,,,0,0,0,,,,
25,,SP1,Gen4,1188361,11,0,,,595.7076023391813,218.2342614863469,247.8258223064875,0.13225847183368594,590,225,252,0.123,-6.765738513653105,-4.17417769351249,0.009258471833685944,8.67,-8.67,4.9,-4.9,12,-12,9,-9,0.03,-0.03,73.49177087786279,73.38436155635598,73.5,73.32227759338669,73.5999984741211,73.5999984741211,73.41658895049615,73.5,73.5999984741211,73.49146932448257,73.49478680940601,73.5,,808.4094796564906,9.55,0,,0,26,,,,73.49090922962536,210,"Y1, Y2, Y3, Y5, Y6, Y7","Y1, Y2, Y3, Y5, Y6, Y7","Y1, Y3, Y5, Y7",v31 Sched db,-5.0,,,,0,0,0,,,,
26,,SP1,Gen4,1188361,11,0,,0.0,595.7076023391813,218.2342614863469,247.8258223064875,0.13225847183368594,590,225,252,0.123,-6.765738513653105,-4.17417769351249,0.009258471833685944,8.67,-8.67,4.9,-4.9,12,-12,9,-9,0.03,-0.03,73.49177087786279,73.38436155635598,73.5,73.32227759338669,73.5999984741211,73.5999984741211,73.41658895049615,73.5,73.5999984741211,73.49146932448257,73.49478680940601,73.5,,808.4094796564906,9.55,0,0.0,0,27,,,,73.49090922962536,210,"Y1, Y2, Y3, Y5, Y6, Y7","Y1, Y2, Y3, Y5, Y6, Y7","Y1, Y3, Y5, Y7",v31 Sched db,-5.0,0.0,-3.0,-3.0,0,0,0,2,1,0,0
27,,SP1,Gen4,1188361,11,0,,,595.7076023391813,218.2342614863469,247.8258223064875,0.13225847183368594,590,225,252,0.123,-6.765738513653105,-4.17417769351249,0.009258471833685944,8.67,-8.67,4.9,-4.9,12,-12,9,-9,0.03,-0.03,73.49142620081739,73.4000015258789,73.49620858865892,73.29810691218806,73.5999984741211,73.5999984741211,73.43317637511339,73.5,73.59431135710946,73.49478680940601,73.49478680940601,73.49431288298837,,808.4056882089915,9.55,0,,0,28,,,,73.49090922962536,210,"Y1, Y2, Y3, Y5, Y6, Y7","Y1, Y2, Y3, Y5, Y6, Y7","Y1, Y3, Y5, Y7",v31 Sched db,-5.0,,,,0,0,0,,,,
28,,SP1,Gen4,1188361,11,0,,0.0,595.7076023391813,218.2342614863469,247.8258223064875,0.13225847183368594,590,225,252,0.123,-6.765738513653105,-4.17417769351249,0.009258471833685944,8.67,-8.67,4.9,-4.9,12,-12,9,-9,0.03,-0.03,73.49319261438319,73.4000015258789,73.49668251507656,73.30900765369289,73.5999984741211,73.5999984741211,73.45308085075487,73.47725109805428,73.5999984741211,73.5,73.48909969239439,73.5,,808.4251187582151,9.55,0,0.0,0,29,,,,73.49090922962536,210,"Y1, Y2, Y3, Y5, Y6, Y7","Y1, Y2, Y3, Y5, Y6, Y7","Y1, Y3, Y5, Y7",v31 Sched db,-5.0,,,,0,0,0,,,,
29,,SP1,Gen4,1188361,11,0,,,595.7076023391813,218.2342614863469,247.8258223064875,0.13225847183368594,590,225,252,0.123,-6.765738513653105,-4.17417769351249,0.009258471833685944,8.67,-8.67,4.9,-4.9,12,-12,9,-9,0.03,-0.03,73.49043530320772,73.4000015258789,73.5,73.31090335936342,73.5999984741211,73.5999984741211,73.42274999392541,73.50568711701163,73.58293712308621,73.5,73.47251226777713,73.5,,808.3947883352849,9.55,0,,0,30,,,,73.49090922962536,210,"Y1, Y2, Y3, Y5, Y6, Y7","Y1, Y2, Y3, Y5, Y6, Y7","Y1, Y3, Y5, Y7",v31 Sched db,-5.0,0.0,-4.0,-4.0,0,0,0,1,1,0,0
30,,SP1,Gen4,1188361,11,0,,0.0,595.7076023391813,218.2342614863469,247.8258223064875,0.13225847183368594,590,225,252,0.123,-6.765738513653105,-4.17417769351249,0.009258471833685944,8.67,-8.67,4.9,-4.9,12,-12,9,-9,0.03,-0.03,73.49383895657074,73.4000015258789,73.5,73.31090335936342,73.5999984741211,73.5999984741211,73.44360275630137,73.5,73.5999984741211,73.49431288298837,73.48909969239439,73.49431288298837,,808.4322285222781,9.55,0,0.0,0,31,,,,73.49090922962536,210,"Y1, Y2, Y3, Y5, Y6, Y7","Y1, Y2, Y3, Y5, Y6, Y7","Y1, Y3, Y5, Y7",v31 Sched db,9.0,,,,0,0,0,,,,
31,,SP1,Gen4,1188361,11,0,,,595.7076023391813,218.2342614863469,247.8258223064875,0.13225847183368594,590,225,252,0.123,-6.765738513653105,-4.17417769351249,0.009258471833685944,8.67,-8.67,4.9,-4.9,12,-12,9,-9,0.03,-0.03,73.49177087786279,73.38436155635598,73.5,73.32227759338669,73.5999984741211,73.5999984741211,73.41658895049615,73.5,73.5999984741211,73.49146932448257,73.49478680940601,73.5,,808.4094796564906,9.55,0,,0,32,,,,73.49090922962536,210,"Y1, Y2, Y3, Y5, Y6, Y7","Y1, Y2, Y3, Y5, Y6, Y7","Y1, Y3, Y5, Y7",v31 Sched db,9.0,,,,0,0,0,,,,
32,,SP1,Gen4,1188361,11,0,,0.0,595.7076023391813,218.2342614863469,247.8258223064875,0.13225847183368594,590,225,252,0.123,-6.765738513653105,-4.17417769351249,0.009258471833685944,8.67,-8.67,4.9,-4.9,12,-12,9,-9,0.03,-0.03,73.49177087786279,73.38436155635598,73.5,73.32227759338669,73.5999984741211,73.5999984741211,73.41658895049615,73.5,73.5999984741211,73.49146932448257,73.49478680940601,73.5,,808.4094796564906,9.55,0,0.0,0,33,,,,73.49090922962536,210,"Y1, Y2, Y3, Y5, Y6, Y7","Y1, Y2, Y3, Y5, Y6, Y7","Y1, Y3, Y5, Y7",v31 Sched db,9.0,1.0,1.0,1.0,0,0,0,1,1,1,73.02056668938111
33,,SP1,Gen4,1188361,11,0,,,595.7076023391813,218.2342614863469,247.8258223064875,0.13225847183368594,590,225,252,0.123,-6.765738513653105,-4.17417769351249,0.009258471833685944,8.67,-8.67,4.9,-4.9,12,-12,9,-9,0.03,-0.03,73.49142620081739,73.4000015258789,73.49620858865892,73.29810691218806,73.5999984741211,73.5999984741211,73.43317637511339,73.5,73.59431135710946,73.49478680940601,73.49478680940601,73.49431288298837,,808.4056882089915,9.55,0,,0,34,,,,73.49090922962536,210,"Y1, Y2, Y3, Y5, Y6, Y7","Y1, Y2, Y3, Y5, Y6, Y7","Y1, Y3, Y5, Y7",v31 Sched db,9.0,,,,0,0,0,,,,
34,,SP1,Gen4,1188361,11,0,,0.0,595.7076023391813,218.2342614863469,247.8258223064875,0.13225847183368594,590,225,252,0.123,-6.765738513653105,-4.17417769351249,0.009258471833685944,8.67,-8.67,4.9,-4.9,12,-12,9,-9,0.03,-0.03,73.49319261438319,73.4000015258789,73.49668251507656,73.30900765369289,73.5999984741211,73.5999984741211,73.45308085075487,73.47725109805428,73.5999984741211,73.5,73.48909969239439,73.5,,808.4251187582151,9.55,0,0.0,0,35,,,,73.49090922962536,210,"Y1, Y2, Y3, Y5, Y6, Y7","Y1, Y2, Y3, Y5, Y6, Y7","Y1, Y3, Y5, Y7",v31 Sched db,-9.0,,,,0,0,0,,,,
35,,SP1,Gen4,1188361,11,0,,,595.7076023391813,218.2342614863469,247.8258223064875,0.13225847183368594,590,225,252,0.123,-6.765738513653105,-4.17417769351249,0.009258471833685944,8.67,-8.67,4.9,-4.9,12,-12,9,-9,0.03,-0.03,73.49043530320772,73.4000015258789,73.5,73.31090335936342,73.5999984741211,73.5999984741211,73.42274999392541,73.50568711701163,73.58293712308621,73.5,73.47251226777713,73.5,,808.3947883352849,9.55,0,,0,36,,,,73.49090922962536,210,"Y1, Y2, Y3, Y5, Y6, Y7","Y1, Y2, Y3, Y5, Y6, Y7","Y1, Y3, Y5, Y7",v31 Sched db,-9.0,-1.0,-1.0,-1.0,0,0,0,1,1,1,73.9616394916894
36,,SP1,Gen4,1188361,11,0,,0.0,595.7076023391813,218.2342614863469,247.8258223064875,0.13225847183368594,590,225,252,0.123,-6.765738513653105,-4.17417769351249,0.009258471833685944,8.67,-8.67,4.9,-4.9,12,-12,9,-9,0.03,-0.03,73.49383895657074,73.4000015258789,73.5,73.31090335936342,73.5999984741211,73.5999984741211,73.44360275630137,73.5,73.5999984741211,73.49431288298837,73.48909969239439,73.49431288298837,,808.4322285222781,9.55,0,0.0,0,37,,,,73.49090922962536,210,"Y1, Y2, Y3, Y5, Y6, Y7","Y1, Y2, Y3, Y5, Y6, Y7","Y1, Y3, Y5, Y7",v31 Sched db,-9.0,,,,0,0,0,,,,
37,,SP1,Gen4,1188361,11,0,,,595.7076023391813,218.2342614863469,247.8258223064875,0.13225847183368594,590,225,252,0.123,-6.765738513653105,-4.17417769351249,0.009258471833685944,8.67,-8.67,4.9,-4.9,12,-12,9,-9,0.03,-0.03,73.49177087786279,73.38436155635598,73.5,73.32227759338669,73.5999984741211,73.5999984741211,73.41658895049615,73.5,73.5999984741211,73.49146932448257,73.49478680940601,73.5,,808.4094796564906,9.55,0,,0,38,,,,73.49090922962536,210,"Y1, Y2, Y3, Y5, Y6, Y7","Y1, Y2, Y3, Y5, Y6, Y7","Y1, Y3, Y5, Y7",v31 Sched db,-9.0,,,,0,0,0,,,,
38,,SP1,Gen4,1188361,11,0,,0.0,595.7076023391813,218.2342614863469,247.8258223064875,0.13225847183368594,590,225,252,0.123,-6.765738513653105,-4.17417769351249,0.009258471833685944,8.67,-8.67,4.9,-4.9,12,-12,9,-9,0.03,-0.03,73.49177087786279,73.38436155635598,73.5,73.32227759338669,73.5999984741211,73.5999984741211,73.41658895049615,73.5,73.5999984741211,73.49146932448257,73.49478680940601,73.5,,808.4094796564906,9.55,0,0.0,0,39,,,,73.49090922962536,210,"Y1, Y2, Y3, Y5, Y6, Y7","Y1, Y2, Y3, Y5, Y6, Y7","Y1, Y3, Y5, Y7",v31 Sched db,1.0,0.0,0.0,1.0,0,0,0,2,1,0,0
39,,SP1,Gen4,1188361,11,0,,,595.7076023391813,218.2342614863469,247.8258223064875,0.13225847183368594,590,225,252,0.123,-6.765738513653105,-4.17417769351249,0.009258471833685944,8.67,-8.67,4.9,-4.9,12,-12,9,-9,0.03,-0.03,73.49142620081739,73.4000015258789,73.49620858865892,73.29810691218806,73.5999984741211,73.5999984741211,73.43317637511339,73.5,73.59431135710946,73.49478680940601,73.49478680940601,73.49431288298837,,808.4056882089915,9.55,0,,0,40,,,,73.49090922962536,210,"Y1, Y2, Y3, Y5, Y6, Y7","Y1, Y2, Y3, Y5, Y6, Y7","Y1, Y3, Y5, Y7",v31 Sched db,1.0,,,,0,0,0,,,,
40,,SP1,Gen4,1188361,11,0,,0.0,595.7076023391813,218.2342614863469,247.8258223064875,0.13225847183368594,590,225,252,0.123,-6.765738513653105,-4.17417769351249,0.009258471833685944,8.67,-8.67,4.9,-4.9,12,-12,9,-9,0.03,-0.03,73.49319261438319,73.4000015258789,73.49668251507656,73.30900765369289,73.5999984741211,73.5999984741211,73.45308085075487,73.47725109805428,73.5999984741211,73.5,73.48909969239439,73.5,,808.4251187582151,9.55,0,0.0,0,41,,,,73.49090922962536,210,"Y1, Y2, Y3, Y5, Y6, Y7","Y1, Y2, Y3, Y5, Y6, Y7","Y1, Y3, Y5, Y7",v31 Sched db,1.0,,,,0,0,0,,,,
41,,SP1,Gen4,1188361,11,0,,,595.7076023391813,218.2342614863469,247.8258223064875,0.13225847183368594,590,225,252,0.123,-6.765738513653105,-4.17417769351249,0.009258471833685944,8.67,-8.67,4.9,-4.9,12,-12,9,-9,0.03,-0.03,73.49043530320772,73.4000015258789,73.5,73.31090335936342,73.5999984741211,73.5999984741211,73.42274999392541,73.50568711701163,73.58293712308621,73.5,73.47251226777713,73.5,,808.3947883352849,9.55,0,,0,42,,,,73.49090922962536,210,"Y1, Y2, Y3, Y5, Y6, Y7","Y1, Y2, Y3, Y5, Y6, Y7","Y1, Y3, Y5, Y7",v31 Sched db,1.0,0.0,0.0,2.0,0,0,0,3,1,0,0
42,,SP1,Gen4,1188361,11,0,,0.0,595.7076023391813,218.2342614863469,247.8258223064875,0.13225847183368594,590,225,252,0.123,-6.765738513653105,-4.17417769351249,0.009258471833685944,8.67,-8.67,4.9,-4.9,12,-12,9,-9,0.03,-0.03,73.49383895657074,73.4000015258789,73.5,73.31090335936342,73.5999984741211,73.5999984741211,73.44360275630137,73.5,73.5999984741211,73.49431288298837,73.48909969239439,73.49431288298837,,808.4322285222781,9.55,0,0.0,0,43,,,,73.49090922962536,210,"Y1, Y2, Y3, Y5, Y6, Y7","Y1, Y2, Y3, Y5, Y6, Y7","Y1, Y3, Y5, Y7",v31 Sched db,1.0,,,,0,0,0,,,,
43,,SP1,Gen4,1188361,11,0,,,595.7076023391813,218.2342614863469,247.8258223064875,0.13225847183368594,590,225,252,0.123,-6.765738513653105,-4.17417769351249,0.009258471833685944,8.67,-8.67,4.9,-4.9,12,-12,9,-9,0.03,-0.03,73.49177087786279,73.38436155635598,73.5,73.32227759338669,73.5999984741211,73.5999984741211,73.41658895049615,73.5,73.5999984741211,73.49146932448257,73.49478680940601,73.5,,808.4094796564906,9.55,0,,0,44,,,,73.49090922962536,210,"Y1, Y2, Y3, Y5, Y6, Y7","Y1, Y2, Y3, Y5, Y6, Y7","Y1, Y3, Y5, Y7",v31 Sched db,1.0,,,,0,0,0,,,,
44,,SP1,Gen4,1188361,11,0,,0.0,595.7076023391813,218.2342614863469,247.8258223064875,0.13225847183368594,590,225,252,0.123,-6.765738513653105,-4.17417769351249,0.009258471833685944,8.67,-8.67,4.9,-4.9,12,-12,9,-9,0.03,-0.03,73.49177087786279,73.38436155635598,73.5,73.32227759338669,73.5999984741211,73.5999984741211,73.41658895049615,73.5,73.5999984741211,73.49146932448257,73.49478680940601,73.5,,808.4094796564906,9.55,0,0.0,0,45,,,,73.49090922962536,210,"Y1, Y2, Y3, Y5, Y6, Y7","Y1, Y2, Y3, Y5, Y6, Y7","Y1, Y3, Y5, Y7",v31 Sched db,1.0,0.0,0.0,3.0,0,0,0,4,1,0,0
45,,SP1,Gen4,1188361,11,0,,,595.7076023391813,218.2342614863469,247.8258223064875,0.13225847183368594,590,225,252,0.123,-6.765738513653105,-4.17417769351249,0.009258471833685944,8.67,-8.67,4.9,-4.9,12,-12,9,-9,0.03,-0.03,73.49142620081739,73.4000015258789,73.49620858865892,73.29810691218806,73.5999984741211,73.5999984741211,73.43317637511339,73.5,73.59431135710946,73.49478680940601,73.49478680940601,73.49431288298837,,808.4056882089915,9.55,0,,0,46,,,,73.49090922962536,210,"Y1, Y2, Y3, Y5, Y6, Y7","Y1, Y2, Y3, Y5, Y6, Y7","Y1, Y3, Y5, Y7",v31 Sched db,1.0,,,,0,0,0,,,,
46,,SP1,Gen4,1188361,11,0,,0.0,595.7076023391813,218.2342614863469,247.8258223064875,0.13225847183368594,590,225,252,0.123,-6.765738513653105,-4.17417769351249,0.009258471833685944,8.67,-8.67,4.9,-4.9,12,-12,9,-9,0.03,-0.03,73.49319261438319,73.4000015258789,73.49668251507656,73.30900765369289,73.5999984741211,73.5999984741211,73.45308085075487,73.47725109805428,73.5999984741211,73.5,73.48909969239439,73.5,,808.4251187582151,9.55,0,0.0,0,47,,,,73.49090922962536,210,"Y1, Y2, Y3, Y5, Y6, Y7","Y1, Y2, Y3, Y5, Y6, Y7","Y1, Y3, Y5, Y7",v31 Sched db,1.0,,,,0,0,0,,,,
47,,SP1,Gen4,1188361,11,0,,,595.7076023391813,218.2342614863469,247.8258223064875,0.13225847183368594,590,225,252,0.123,-6.765738513653105,-4.17417769351249,0.009258471833685944,8.67,-8.67,4.9,-4.9,12,-12,9,-9,0.03,-0.03,73.49043530320772,73.4000015258789,73.5,73.31090335936342,73.5999984741211,73.5999984741211,73.42274999392541,73.50568711701163,73.58293712308621,73.5,73.47251226777713,73.5,,808.3947883352849,9.55,0,,0,48,,,,73.49090922962536,210,"Y1, Y2, Y3, Y5, Y6, Y7","Y1, Y2, Y3, Y5, Y6, Y7","Y1, Y3, Y5, Y7",v31 Sched db,1.0,0.0,0.0,4.0,0,0,0,5,1,0,0
48,,SP1,Gen4,1188361,11,0,,0.0,595.7076023391813,218.2342614863469,247.8258223064875,0.13225847183368594,590,225,252,0.123,-6.765738513653105,-4.17417769351249,0.009258471833685944,8.67,-8.67,4.9,-4.9,12,-12,9,-9,0.03,-0.03,73.49383895657074,73.4000015258789,73.5,73.31090335936342,73.5999984741211,73.5999984741211,73.44360275630137,73.5,73.5999984741211,73.49431288298837,73.48909969239439,73.49431288298837,,808.4322285222781,9.55,0,0.0,0,49,,,,73.49090922962536,210,"Y1, Y2, Y3, Y5, Y6, Y7","Y1, Y2, Y3, Y5, Y6, Y7","Y1, Y3, Y5, Y7",v31 Sched db,1.0,,,,0,0,0,,,,
49,,SP1,Gen4,1188361,11,0,,,595.7076023391813,218.2342614863469,247.8258223064875,0.13225847183368594,590,225,252,0.123,-6.765738513653105,-4.17417769351249,0.009258471833685944,8.67,-8.67,4.9,-4.9,12,-12,9,-9,0.03,-0.03,73.49177087786279,73.38436155635598,73.5,73.32227759338669,73.5999984741211,73.5999984741211,73.41658895049615,73.5,73.5999984741211,73.49146932448257,73.49478680940601,73.5,,808.4094796564906,9.55,0,,0,50,,,,73.49090922962536,210,"Y1, Y2, Y3, Y5, Y6, Y7","Y1, Y2, Y3, Y5, Y6, Y7","Y1, Y3, Y5, Y7",v31 Sched db,1.0,,,,0,0,0,,,,
50,,SP1,Gen4,1188361,11,0,,0.0,595.7076023391813,218.2342614863469,247.8258223064875,0.13225847183368594,590,225,252,0.123,-6.765738513653105,-4.17417769351249,0.009258471833685944,8.67,-8.67,4.9,-4.9,12,-12,9,-9,0.03,-0.03,73.49177087786279,73.38436155635598,73.5,73.32227759338669,73.5999984741211,73.5999984741211,73.41658895049615,73.5,73.5999984741211,73.49146932448257,73.49478680940601,73.5,,808.4094796564906,9.55,0,0.0,0,51,,,,73.49090922962536,210,"Y1, Y2, Y3, Y5, Y6, Y7","Y1, Y2, Y3, Y5, Y6, Y7","Y1, Y3, Y5, Y7",v31 Sched db,1.0,0.0,0.0,5.0,0,0,0,6,1,0,0
51,,SP1,Gen4,1188361,11,0,,,595.7076023391813,218.2342614863469,247.8258223064875,0.13225847183368594,590,225,252,0.123,-6.765738513653105,-4.17417769351249,0.009258471833685944,8.67,-8.67,4.9,-4.9,12,-12,9,-9,0.03,-0.03,73.49142620081739,73.4000015258789,73.49620858865892,73.29810691218806,73.5999984741211,73.5999984741211,73.43317637511339,73.5,73.59431135710946,73.49478680940601,73.49478680940601,73.49431288298837,,808.4056882089915,9.55,0,,0,52,,,,73.49090922962536,210,"Y1, Y2, Y3, Y5, Y6, Y7","Y1, Y2, Y3, Y5, Y6, Y7","Y1, Y3, Y5, Y7",v31 Sched db,1.0,,,,0,0,0,,,,
52,,SP1,Gen4,1188361,11,0,,0.0,595.7076023391813,218.2342614863469,247.8258223064875,0.13225847183368594,590,225,252,0.123,-6.765738513653105,-4.17417769351249,0.009258471833685944,8.67,-8.67,4.9,-4.9,12,-12,9,-9,0.03,-0.03,73.49319261438319,73.4000015258789,73.49668251507656,73.30900765369289,73.5999984741211,73.5999984741211,73.45308085075487,73.47725109805428,73.5999984741211,73.5,73.48909969239439,73.5,,808.4251187582151,9.55,0,0.0,0,53,,,,73.49090922962536,210,"Y1, Y2, Y3, Y5, Y6, Y7","Y1, Y2, Y3, Y5, Y6, Y7","Y1, Y3, Y5, Y7",v31 Sched db,1.0,,,,0,0,0,,,,
53,,SP1,Gen4,1188361,11,0,,,595.7076023391813,218.2342614863469,247.8258223064875,0.13225847183368594,590,225,252,0.123,-6.765738513653105,-4.17417769351249,0.009258471833685944,8.67,-8.67,4.9,-4.9,12,-12,9,-9,0.03,-0.03,73.49043530320772,73.4000015258789,73.5,73.31090335936342,73.5999984741211,73.5999984741211,73.42274999392541,73.50568711701163,73.58293712308621,73.5,73.47251226777713,73.5,,808.3947883352849,9.55,0,,0,54,,,,73.49090922962536,210,"Y1, Y2, Y3, Y5, Y6, Y7","Y1, Y2, Y3, Y5, Y6, Y7","Y1, Y3, Y5, Y7",v31 Sched db,1.0,0.0,0.0,6.0,0,0,0,7,1,0,0
54,,SP1,Gen4,1188361,11,0,,0.0,595.7076023391813,218.2342614863469,247.8258223064875,0.13225847183368594,590,225,252,0.123,-6.765738513653105,-4.17417769351249,0.009258471833685944,8.67,-8.67,4.9,-4.9,12,-12,9,-9,0.03,-0.03,73.49383895657074,73.4000015258789,73.5,73.31090335936342,73.5999984741211,73.5999984741211,73.44360275630137,73.5,73.5999984741211,73.49431288298837,73.48909969239439,73.49431288298837,,808.4322285222781,9.55,0,0.0,0,55,,,,73.49090922962536,210,"Y1, Y2, Y3, Y5, Y6, Y7","Y1, Y2, Y3, Y5, Y6, Y7","Y1, Y3, Y5, Y7",v31 Sched db,1.0,,,,0,0,0,,,,
55,,SP1,Gen4,1188361,11,0,,,595.7076023391813,218.2342614863469,247.8258223064875,0.13225847183368594,590,225,252,0.123,-6.765738513653105,-4.17417769351249,0.009258471833685944,8.67,-8.67,4.9,-4.9,12,-12,9,-9,0.03,-0.03,73.49177087786279,73.38436155635598,73.5,73.32227759338669,73.5999984741211,73.5999984741211,73.41658895049615,73.5,73.5999984741211,73.49146932448257,73.49478680940601,73.5,,808.4094796564906,9.55,0,,0,56,,,,73.49090922962536,210,"Y1, Y2, Y3, Y5, Y6, Y7","Y1, Y2, Y3, Y5, Y6, Y7","Y1, Y3, Y5, Y7",v31 Sched db,1.0,,,,0,0,0,,,,
56,,SP1,Gen4,1188361,11,0,,0.0,595.7076023391813,218.2342614863469,247.8258223064875,0.13225847183368594,590,225,252,0.123,-6.765738513653105,-4.17417769351249,0.009258471833685944,8.67,-8.67,4.9,-4.9,12,-12,9,-9,0.03,-0.03,73.49177087786279,73.38436155635598,73.5,73.32227759338669,73.5999984741211,73.5999984741211,73.41658895049615,73.5,73.5999984741211,73.49146932448257,73.49478680940601,73.5,,808.4094796564906,9.55,0,0.0,0,57,,,,73.49090922962536,210,"Y1, Y2, Y3, Y5, Y6, Y7","Y1, Y2, Y3, Y5, Y6, Y7","Y1, Y3, Y5, Y7",v31 Sched db,1.0,0.0,0.0,7.0,0,0,0,8,1,2,73.38705883597797
57,,SP1,Gen4,1188361,11,0,,,595.7076023391813,218.2342614863469,247.8258223064875,0.13225847183368594,590,225,252,0.123,-6.765738513653105,-4.17417769351249,0.009258471833685944,8.67,-8.67,4.9,-4.9,12,-12,9,-9,0.03,-0.03,73.49142620081739,73.4000015258789,73.49620858865892,73.29810691218806,73.5999984741211,73.5999984741211,73.43317637511339,73.5,73.59431135710946,73.49478680940601,73.49478680940601,73.49431288298837,,808.4056882089915,9.55,0,,0,58,,,,73.49090922962536,210,"Y1, Y2, Y3, Y5, Y6, Y7","Y1, Y2, Y3, Y5, Y6, Y7","Y1, Y3, Y5, Y7",v31 Sched db,1.0,,,,0,0,0,,,,
58,,SP1,Gen4,1188361,11,0,,0.0,595.7076023391813,218.2342614863469,247.8258223064875,0.13225847183368594,590,225,252,0.123,-6.765738513653105,-4.17417769351249,0.009258471833685944,8.67,-8.67,4.9,-4.9,12,-12,9,-9,0.03,-0.03,73.49319261438319,73.4000015258789,73.49668251507656,73.30900765369289,73.5999984741211,73.5999984741211,73.45308085075487,73.47725109805428,73.5999984741211,73.5,73.48909969239439,73.5,,808.4251187582151,9.55,0,0.0,0,59,,,,73.49090922962536,210,"Y1, Y2, Y3, Y5, Y6, Y7","Y1, Y2, Y3, Y5, Y6, Y7","Y1, Y3, Y5, Y7",v31 Sched db,1.0,,,,0,0,0,,,,
59,,SP1,Gen4,1188361,11,0,,,595.7076023391813,218.2342614863469,247.8258223064875,0.13225847183368594,590,225,252,0.123,-6.765738513653105,-4.17417769351249,0.009258471833685944,8.67,-8.67,4.9,-4.9,12,-12,9,-9,0.03,-0.03,73.49043530320772,73.4000015258789,73.5,73.31090335936342,73.5999984741211,73.5999984741211,73.42274999392541,73.50568711701163,73.58293712308621,73.5,73.47251226777713,73.5,,808.3947883352849,9.55,0,,0,60,,,,73.49090922962536,210,"Y1, Y2, Y3, Y5, Y6, Y7","Y1, Y2, Y3, Y5, Y6, Y7","Y1, Y3, Y5, Y7",v31 Sched db,1.0,0.0,0.0,8.0,0,0,0,9,1,2,73.3857232613229
60,,SP1,Gen4,1188361,11,0,,0.0,595.7076023391813,218.2342614863469,247.8258223064875,0.13225847183368594,590,225,252,0.123,-6.765738513653105,-4.17417769351249,0.009258471833685944,8.67,-8.67,4.9,-4.9,12,-12,9,-9,0.03,-0.03,73.49383895657074,73.4000015258789,73.5,73.31090335936342,73.5999984741211,73.5999984741211,73.44360275630137,73.5,73.5999984741211,73.49431288298837,73.48909969239439,73.49431288298837,,808.4322285222781,9.55,0,0.0,0,61,,,,73.49090922962536,210,"Y1, Y2, Y3, Y5, Y6, Y7","Y1, Y2, Y3, Y5, Y6, Y7","Y1, Y3, Y5, Y7",v31 Sched db,-1.0,,,,0,0,0,,,,
61,,SP1,Gen4,1188361,11,0,,,595.7076023391813,218.2342614863469,247.8258223064875,0.13225847183368594,590,225,252,0.123,-6.765738513653105,-4.17417769351249,0.009258471833685944,8.67,-8.67,4.9,-4.9,12,-12,9,-9,0.03,-0.03,73.49177087786279,73.38436155635598,73.5,73.32227759338669,73.5999984741211,73.5999984741211,73.41658895049615,73.5,73.5999984741211,73.49146932448257,73.49478680940601,73.5,,808.4094796564906,9.55,0,,0,62,,,,73.49090922962536,210,"Y1, Y2, Y3, Y5, Y6, Y7","Y1, Y2, Y3, Y5, Y6, Y7","Y1, Y3, Y5, Y7",v31 Sched db,-1.0,,,,0,0,0,,,,
62,,SP1,Gen4,1188361,11,0,,0.0,595.7076023391813,218.2342614863469,247.8258223064875,0.13225847183368594,590,225,252,0.123,-6.765738513653105,-4.17417769351249,0.009258471833685944,8.67,-8.67,4.9,-4.9,12,-12,9,-9,0.03,-0.03,73.49177087786279,73.38436155635598,73.5,73.32227759338669,73.5999984741211,73.5999984741211,73.41658895049615,73.5,73.5999984741211,73.49146932448257,73.49478680940601,73.5,,808.4094796564906,9.55,0,0.0,0,63,,,,73.49090922962536,210,"Y1, Y2, Y3, Y5, Y6, Y7","Y1, Y2, Y3, Y5, Y6, Y7","Y1, Y3, Y5, Y7",v31 Sched db,-1.0,0.0,0.0,-1.0,0,0,0,8,1,2,73.59648291974761
63,,SP1,Gen4,1188361,11,0,,,595.7076023391813,218.2342614863469,247.8258223064875,0.13225847183368594,590,225,252,0.123,-6.765738513653105,-4.17417769351249,0.009258471833685944,8.67,-8.67,4.9,-4.9,12,-12,9,-9,0.03,-0.03,73.49142620081739,73.4000015258789,73.49620858865892,73.29810691218806,73.5999984741211,73.5999984741211,73.43317637511339,73.5,73.59431135710946,73.49478680940601,73.49478680940601,73.49431288298837,,808.4056882089915,9.55,0,,0,64,,,,73.49090922962536,210,"Y1, Y2, Y3, Y5, Y6, Y7","Y1, Y2, Y3, Y5, Y6, Y7","Y1, Y3, Y5, Y7",v31 Sched db,-1.0,,,,0,0,0,,,,
64,,SP1,Gen4,1188361,11,0,,0.0,595.7076023391813,218.2342614863469,247.8258223064875,0.13225847183368594,590,225,252,0.123,-6.765738513653105,-4.17417769351249,0.009258471833685944,8.67,-8.67,4.9,-4.9,12,-12,9,-9,0.03,-0.03,73.49319261438319,73.4000015258789,73.49668251507656,73.30900765369289,73.5999984741211,73.5999984741211,73.45308085075487,73.47725109805428,73.5999984741211,73.5,73.48909969239439,73.5,,808.4251187582151,9.55,0,0.0,0,65,,,,73.49090922962536,210,"Y1, Y2, Y3, Y5, Y6, Y7","Y1, Y2, Y3, Y5, Y6, Y7","Y1, Y3, Y5, Y7",v31 Sched db,-1.0,,,,0,0,0,,,,
65,,SP1,Gen4,1188361,11,0,,,595.7076023391813,218.2342614863469,247.8258223064875,0.13225847183368594,590,225,252,0.123,-6.765738513653105,-4.17417769351249,0.009258471833685944,8.67,-8.67,4.9,-4.9,12,-12,9,-9,0.03,-0.03,73.49043530320772,73.4000015258789,73.5,73.31090335936342,73.5999984741211,73.5999984741211,73.42274999392541,73.50568711701163,73.58293712308621,73.5,73.47251226777713,73.5,,808.3947883352849,9.55,0,,0,66,,,,73.49090922962536,210,"Y1, Y2, Y3, Y5, Y6, Y7","Y1, Y2, Y3, Y5, Y6, Y7","Y1, Y3, Y5, Y7",v31 Sched db,-1.0,0.0,0.0,-2.0,0,0,0,7,1,0,0
66,,SP1,Gen4,1188361,11,0,,0.0,595.7076023391813,218.2342614863469,247.8258223064875,0.13225847183368594,590,225,252,0.123,-6.765738513653105,-4.17417769351249,0.009258471833685944,8.67,-8.67,4.9,-4.9,12,-12,9,-9,0.03,-0.03,73.49383895657074,73.4000015258789,73.5,73.31090335936342,73.5999984741211,73.5999984741211,73.44360275630137,73.5,73.5999984741211,73.49431288298837,73.48909969239439,73.49431288298837,,808.4322285222781,9.55,0,0.0,0,67,,,,73.49090922962536,210,"Y1, Y2, Y3, Y5, Y6, Y7","Y1, Y2, Y3, Y5, Y6, Y7","Y1, Y3, Y5, Y7",v31 Sched db,-1.0,,,,0,0,0,,,,
67,,SP1,Gen4,1188361,11,0,,,595.7076023391813,218.2342614863469,247.8258223064875,0.13225847183368594,590,225,252,0.123,-6.765738513653105,-4.17417769351249,0.009258471833685944,8.67,-8.67,4.9,-4.9,12,-12,9,-9,0.03,-0.03,73.49177087786279,73.38436155635598,73.5,73.32227759338669,73.5999984741211,73.5999984741211,73.41658895049615,73.5,73.5999984741211,73.49146932448257,73.49478680940601,73.5,,808.4094796564906,9.55,0,,0,68,,,,73.49090922962536,210,"Y1, Y2, Y3, Y5, Y6, Y7","Y1, Y2, Y3, Y5, Y6, Y7","Y1, Y3, Y5, Y7",v31 Sched db,-1.0,,,,0,0,0,,,,
68,,SP1,Gen4,1188361,11,0,,0.0,595.7076023391813,218.2342614863469,247.8258223064875,0.13225847183368594,590,225,252,0.123,-6.765738513653105,-4.17417769351249,0.009258471833685944,8.67,-8.67,4.9,-4.9,12,-12,9,-9,0.03,-0.03,73.49177087786279,73.38436155635598,73.5,73.32227759338669,73.5999984741211,73.5999984741211,73.41658895049615,73.5,73.5999984741211,73.49146932448257,73.49478680940601,73.5,,808.4094796564906,9.55,0,0.0,0,69,,,,73.49090922962536,210,"Y1, Y2, Y3, Y5, Y6, Y7","Y1, Y2, Y3, Y5, Y6, Y7","Y1, Y3, Y5, Y7",v31 Sched db,-1.0,0.0,0.0,-3.0,0,0,0,6,1,0,0
69,,SP1,Gen4,1188361,11,0,,,595.7076023391813,218.2342614863469,247.8258223064875,0.13225847183368594,590,225,252,0.123,-6.765738513653105,-4.17417769351249,0.009258471833685944,8.67,-8.67,4.9,-4.9,12,-12,9,-9,0.03,-0.03,73.49142620081739,73.4000015258789,73.49620858865892,73.29810691218806,73.5999984741211,73.5999984741211,73.43317637511339,73.5,73.59431135710946,73.49478680940601,73.49478680940601,73.49431288298837,,808.4056882089915,9.55,0,,0,70,,,,73.49090922962536,210,"Y1, Y2, Y3, Y5, Y6, Y7","Y1, Y2, Y3, Y5, Y6, Y7","Y1, Y3, Y5, Y7",v31 Sched db,-1.0,,,,0,0,0,,,,
70,,SP1,Gen4,1188361,11,0,,0.0,595.7076023391813,218.2342614863469,247.8258223064875,0.13225847183368594,590,225,252,0.123,-6.765738513653105,-4.17417769351249,0.009258471833685944,8.67,-8.67,4.9,-4.9,12,-12,9,-9,0.03,-0.03,73.49319261438319,73.4000015258789,73.49668251507656,73.30900765369289,73.5999984741211,73.5999984741211,73.45308085075487,73.47725109805428,73.5999984741211,73.5,73.48909969239439,73.5,,808.4251187582151,9.55,0,0.0,0,71,,,,73.49090922962536,210,"Y1, Y2, Y3, Y5, Y6, Y7","Y1, Y2, Y3, Y5, Y6, Y7","Y1, Y3, Y5, Y7",v31 Sched db,-1.0,,,,0,0,0,,,,
71,,SP1,Gen4,1188361,11,0,,,595.7076023391813,218.2342614863469,247.8258223064875,0.13225847183368594,590,225,252,0.123,-6.765738513653105,-4.17417769351249,0.009258471833685944,8.67,-8.67,4.9,-4.9,12,-12,9,-9,0.03,-0.03,73.49043530320772,73.4000015258789,73.5,73.31090335936342,73.5999984741211,73.5999984741211,73.42274999392541,73.50568711701163,73.58293712308621,73.5,73.47251226777713,73.5,,808.3947883352849,9.55,0,,0,72,,,,73.49090922962536,210,"Y1, Y2, Y3, Y5, Y6, Y7","Y1, Y2, Y3, Y5, Y6, Y7","Y1, Y3, Y5, Y7",v31 Sched db,-1.0,0.0,0.0,-4.0,0,0,0,5,1,0,0
72,,SP1,Gen4,1188361,11,0,,0.0,595.7076023391813,218.2342614863469,247.8258223064875,0.13225847183368594,590,225,252,0.123,-6.765738513653105,-4.17417769351249,0.009258471833685944,8.67,-8.67,4.9,-4.9,12,-12,9,-9,0.03,-0.03,73.49383895657074,73.4000015258789,73.5,73.31090335936342,73.5999984741211,73.5999984741211,73.44360275630137,73.5,73.5999984741211,73.49431288298837,73.48909969239439,73.49431288298837,,808.4322285222781,9.55,0,0.0,0,73,,,,73.49090922962536,210,"Y1, Y2, Y3, Y5, Y6, Y7","Y1, Y2, Y3, Y5, Y6, Y7","Y1, Y3, Y5, Y7",v31 Sched db,-1.0,,,,0,0,0,,,,
73,,SP1,Gen4,1188361,11,0,,,595.7076023391813,218.2342614863469,247.8258223064875,0.13225847183368594,590,225,252,0.123,-6.765738513653105,-4.17417769351249,0.009258471833685944,8.67,-8.67,4.9,-4.9,12,-12,9,-9,0.03,-0.03,73.49177087786279,73.38436155635598,73.5,73.32227759338669,73.5999984741211,73.5999984741211,73.41658895049615,73.5,73.5999984741211,73.49146932448257,73.49478680940601,73.5,,808.4094796564906,9.55,0,,0,74,,,,73.49090922962536,210,"Y1, Y2, Y3, Y5, Y6, Y7","Y1, Y2, Y3, Y5, Y6, Y7","Y1, Y3, Y5, Y7",v31 Sched db,-1.0,,,,0,0,0,,,,
74,,SP1,Gen4,1188361,11,0,,0.0,595.7076023391813,218.2342614863469,247.8258223064875,0.13225847183368594,590,225,252,0.123,-6.765738513653105,-4.17417769351249,0.009258471833685944,8.67,-8.67,4.9,-4.9,12,-12,9,-9,0.03,-0.03,73.49177087786279,73.38436155635598,73.5,73.32227759338669,73.5999984741211,73.5999984741211,73.41658895049615,73.5,73.5999984741211,73.49146932448257,73.49478680940601,73.5,,808.4094796564906,9.55,0,0.0,0,75,,,,73.49090922962536,210,"Y1, Y2, Y3, Y5, Y6, Y7","Y1, Y2, Y3, Y5, Y6, Y7","Y1, Y3, Y5, Y7",v31 Sched db,-1.0,0.0,0.0,-5.0,0,0,0,4,1,0,0
75,,SP1,Gen4,1188361,11,0,,,595.7076023391813,218.2342614863469,247.8258223064875,0.13225847183368594,590,225,252,0.123,-6.765738513653105,-4.17417769351249,0.009258471833685944,8.67,-8.67,4.9,-4.9,12,-12,9,-9,0.03,-0.03,73.49142620081739,73.4000015258789,73.49620858865892,73.29810691218806,73.5999984741211,73.5999984741211,73.43317637511339,73.5,73.59431135710946,73.49478680940601,73.49478680940601,73.49431288298837,,808.4056882089915,9.55,0,,0,76,,,,73.49090922962536,210,"Y1, Y2, Y3, Y5, Y6, Y7","Y1, Y2, Y3, Y5, Y6, Y7","Y1, Y3, Y5, Y7",v31 Sched db,-1.0,,,,0,0,0,,,,
76,,SP1,Gen4,1188361,11,0,,0.0,595.7076023391813,218.2342614863469,247.8258223064875,0.13225847183368594,590,225,252,0.123,-6.765738513653105,-4.17417769351249,0.009258471833685944,8.67,-8.67,4.9,-4.9,12,-12,9,-9,0.03,-0.03,73.49319261438319,73.4000015258789,73.49668251507656,73.30900765369289,73.5999984741211,73.5999984741211,73.45308085075487,73.47725109805428,73.5999984741211,73.5,73.48909969239439,73.5,,808.4251187582151,9.55,0,0.0,0,77,,,,73.49090922962536,210,"Y1, Y2, Y3, Y5, Y6, Y7","Y1, Y2, Y3, Y5, Y6, Y7","Y1, Y3, Y5, Y7",v31 Sched db,-1.0,,,,0,0,0,,,,
77,,SP1,Gen4,1188361,11,0,,,595.7076023391813,218.2342614863469,247.8258223064875,0.13225847183368594,590,225,252,0.123,-6.765738513653105,-4.17417769351249,0.009258471833685944,8.67,-8.67,4.9,-4.9,12,-12,9,-9,0.03,-0.03,73.49043530320772,73.4000015258789,73.5,73.31090335936342,73.5999984741211,73.5999984741211,73.42274999392541,73.50568711701163,73.58293712308621,73.5,73.47251226777713,73.5,,808.3947883352849,9.55,0,,0,78,,,,73.49090922962536,210,"Y1, Y2, Y3, Y5, Y6, Y7","Y1, Y2, Y3, Y5, Y6, Y7","Y1, Y3, Y5, Y7",v31 Sched db,-1.0,0.0,0.0,-6.0,0,0,0,3,1,0,0
78,,SP1,Gen4,1188361,11,0,,0.0,595.7076023391813,218.2342614863469,247.8258223064875,0.13225847183368594,590,225,252,0.123,-6.765738513653105,-4.17417769351249,0.009258471833685944,8.67,-8.67,4.9,-4.9,12,-12,9,-9,0.03,-0.03,73.49383895657074,73.4000015258789,73.5,73.31090335936342,73.5999984741211,73.5999984741211,73.44360275630137,73.5,73.5999984741211,73.49431288298837,73.48909969239439,73.49431288298837,,808.4322285222781,9.55,0,0.0,0,79,,,,73.49090922962536,210,"Y1, Y2, Y3, Y5, Y6, Y7","Y1, Y2, Y3, Y5, Y6, Y7","Y1, Y3, Y5, Y7",v31 Sched db,-1.0,,,,0,0,0,,,,
79,,SP1,Gen4,1188361,11,0,,,595.7076023391813,218.2342614863469,247.8258223064875,0.13225847183368594,590,225,252,0.123,-6.765738513653105,-4.17417769351249,0.009258471833685944,8.67,-8.67,4.9,-4.9,12,-12,9,-9,0.03,-0.03,73.49177087786279,73.38436155635598,73.5,73.32227759338669,73.5999984741211,73.5999984741211,73.41658895049615,73.5,73.5999984741211,73.49146932448257,73.49478680940601,73.5,,808.4094796564906,9.55,0,,0,80,,,,73.49090922962536,210,"Y1, Y2, Y3, Y5, Y6, Y7","Y1, Y2, Y3, Y5, Y6, Y7","Y1, Y3, Y5, Y7",v31 Sched db,-1.0,,,,0,0,0,,,,
80,,SP1,Gen4,1188361,11,0,,0.0,595.7076023391813,218.2342614863469,247.8258223064875,0.13225847183368594,590,225,252,0.123,-6.765738513653105,-4.17417769351249,0.009258471833685944,8.67,-8.67,4.9,-4.9,12,-12,9,-9,0.03,-0.03,73.49177087786279,73.38436155635598,73.5,73.32227759338669,73.5999984741211,73.5999984741211,73.41658895049615,73.5,73.5999984741211,73.49146932448257,73.49478680940601,73.5,,808.4094796564906,9.55,0,0.0,0,81,,,,73.49090922962536,210,"Y1, Y2, Y3, Y5, Y6, Y7","Y1, Y2, Y3, Y5, Y6, Y7","Y1, Y3, Y5, Y7",v31 Sched db,-1.0,0.0,0.0,-7.0,0,0,0,2,1,0,0
81,,SP1,Gen4,1188361,11,0,,,595.7076023391813,218.2342614863469,247.8258223064875,0.13225847183368594,590,225,252,0.123,-6.765738513653105,-4.17417769351249,0.009258471833685944,8.67,-8.67,4.9,-4.9,12,-12,9,-9,0.03,-0.03,73.49177087786279,73.38436155635598,73.5,73.32227759338669,73.5999984741211,73.5999984741211,73.41658895049615,73.5,73.5999984741211,73.49146932448257,73.49478680940601,73.5,,808.4094796564906,9.55,0,,0,82,,,,73.49090922962536,210,"Y1, Y2, Y3, Y5, Y6, Y7","Y1, Y2, Y3, Y5, Y6, Y7","Y1, Y3, Y5, Y7",v31 Sched db,-1.0,,,,0,0,0,,,,
82,,SP1,Gen4,1188361,11,0,,0.0,595.7076023391813,218.2342614863469,247.8258223064875,0.13225847183368594,590,225,252,0.123,-6.765738513653105,-4.17417769351249,0.009258471833685944,8.67,-8.67,4.9,-4.9,12,-12,9,-9,0.03,-0.03,73.49177087786279,73.38436155635598,73.5,73.32227759338669,73.5999984741211,73.5999984741211,73.41658895049615,73.5,73.5999984741211,73.49146932448257,73.49478680940601,73.5,,808.4094796564906,9.55,0,0.0,0,83,,,,73.49090922962536,210,"Y1, Y2, Y3, Y5, Y6, Y7","Y1, Y2, Y3, Y5, Y6, Y7","Y1, Y3, Y5, Y7",v31 Sched db,-1.0,,,,0,0,0,,,,
83,,SP1,Gen4,1188361,11,0,,,595.7076023391813,218.2342614863469,247.8258223064875,0.13225847183368594,590,225,252,0.123,-6.765738513653105,-4.17417769351249,0.009258471833685944,8.67,-8.67,4.9,-4.9,12,-12,9,-9,0.03,-0.03,73.49177087786279,73.38436155635598,73.5,73.32227759338669,73.5999984741211,73.5999984741211,73.41658895049615,73.5,73.5999984741211,73.49146932448257,73.49478680940601,73.5,,808.4094796564906,9.55,0,,0,84,,,,73.49090922962536,210,"Y1, Y2, Y3, Y5, Y6, Y7","Y1, Y2, Y3, Y5, Y6, Y7","Y1, Y3, Y5, Y7",v31 Sched db,-1.0,0.0,0.0,-8.0,0,0,0,1,1,0,0
84,,SP1,Gen4,1188361,11,0,,0.0,595.7076023391813,218.2342614863469,247.8258223064875,0.13225847183368594,590,225,252,0.123,-6.765738513653105,-4.17417769351249,0.009258471833685944,8.67,-8.67,4.9,-4.9,12,-12,9,-9,0.03,-0.03,73.49177087786279,73.38436155635598,73.5,73.32227759338669,73.5999984741211,73.5999984741211,73.41658895049615,73.5,73.5999984741211,73.49146932448257,73.49478680940601,73.5,,808.4094796564906,9.55,0,0.0,0,85,,,,73.49090922962536,210,"Y1, Y2, Y3, Y5, Y6, Y7","Y1, Y2, Y3, Y5, Y6, Y7","Y1, Y3, Y5, Y7",v31 Sched db,-1.0,,,,0,0,0,,,,
85,,SP1,Gen4,1188361,11,0,,,595.7076023391813,218.2342614863469,247.8258223064875,0.13225847183368594,590,225,252,0.123,-6.765738513653105,-4.17417769351249,0.009258471833685944,8.67,-8.67,4.9,-4.9,12,-12,9,-9,0.03,-0.03,73.49177087786279,73.38436155635598,73.5,73.32227759338669,73.5999984741211,73.5999984741211,73.41658895049615,73.5,73.5999984741211,73.49146932448257,73.49478680940601,73.5,,808.4094796564906,9.55,0,,0,86,,,,73.49090922962536,210,"Y1, Y2, Y3, Y5, Y6, Y7","Y1, Y2, Y3, Y5, Y6, Y7","Y1, Y3, Y5, Y7",v31 Sched db,-1.0,,,,0,0,0,,,,
86,,SP1,Gen4,1188361,11,0,,0.0,595.7076023391813,218.2342614863469,247.8258223064875,0.13225847183368594,590,225,252,0.123,-6.765738513653105,-4.17417769351249,0.009258471833685944,8.67,-8.67,4.9,-4.9,12,-12,9,-9,0.03,-0.03,73.49177087786279,73.38436155635598,73.5,73.32227759338669,73.5999984741211,73.5999984741211,73.41658895049615,73.5,73.5999984741211,73.49146932448257,73.49478680940601,73.5,,808.4094796564906,9.55,0,0.0,0,87,,,,73.49090922962536,210,"Y1, Y2, Y3, Y5, Y6, Y7","Y1, Y2, Y3, Y5, Y6, Y7","Y1, Y3, Y5, Y7",v31 Sched db,-1.0,0.0,0.0,-9.0,0,0,0,0,1,0,0
87,,SP1,Gen4,1188361,11,0,,,595.7076023391813,218.2342614863469,247.8258223064875,0.13225847183368594,590,225,252,0.123,-6.765738513653105,-4.17417769351249,0.009258471833685944,8.67,-8.67,4.9,-4.9,12,-12,9,-9,0.03,-0.03,73.49177087786279,73.38436155635598,73.5,73.32227759338669,73.5999984741211,73.5999984741211,73.41658895049615,73.5,73.5999984741211,73.49146932448257,73.49478680940601,73.5,,808.4094796564906,9.55,0,,0,88,,,,73.49090922962536,210,"Y1, Y2, Y3, Y5, Y6, Y7","Y1, Y2, Y3, Y5, Y6, Y7","Y1, Y3, Y5, Y7",v31 Sched db,-1.0,,,,0,0,0,,,,
88,,SP1,Gen4,1188361,11,0,,0.0,595.7076023391813,218.2342614863469,247.8258223064875,0.13225847183368594,590,225,252,0.123,-6.765738513653105,-4.17417769351249,0.009258471833685944,8.67,-8.67,4.9,-4.9,12,-12,9,-9,0.03,-0.03,73.49177087786279,73.38436155635598,73.5,73.32227759338669,73.5999984741211,73.5999984741211,73.41658895049615,73.5,73.5999984741211,73.49146932448257,73.49478680940601,73.5,,808.4094796564906,9.55,0,0.0,0,89,,,,73.49090922962536,210,"Y1, Y2, Y3, Y5, Y6, Y7","Y1, Y2, Y3, Y5, Y6, Y7","Y1, Y3, Y5, Y7",v31 Sched db,-1.0,,,,0,0,0,,,,
89,,SP1,Gen4,1188361,11,0,,,595.7076023391813,218.2342614863469,247.8258223064875,0.13225847183368594,590,225,252,0.123,-6.765738513653105,-4.17417769351249,0.009258471833685944,8.67,-8.67,4.9,-4.9,12,-12,9,-9,0.03,-0.03,73.49177087786279,73.38436155635598,73.5,73.32227759338669,73.5999984741211,73.5999984741211,73.41658895049615,73.5,73.5999984741211,73.49146932448257,73.49478680940601,73.5,,808.4094796564906,9.55,0,,0,90,,,,73.49090922962536,210,"Y1, Y2, Y3, Y5, Y6, Y7","Y1, Y2, Y3, Y5, Y6, Y7","Y1, Y3, Y5, Y7",v31 Sched db,-1.0,0.0,0.0,-10.0,0,0,0,-1,1,0,0
90,,SP1,Gen4,1188361,11,0,,0.0,595.7076023391813,218.2342614863469,247.8258223064875,0.13225847183368594,590,225,252,0.123,-6.765738513653105,-4.17417769351249,0.009258471833685944,8.67,-8.67,4.9,-4.9,12,-12,9,-9,0.03,-0.03,73.49177087786279,73.38436155635598,73.5,73.32227759338669,73.5999984741211,73.5999984741211,73.41658895049615,73.5,73.5999984741211,73.49146932448257,73.49478680940601,73.5,,808.4094796564906,9.55,0,0.0,0,91,,,,73.49090922962536,210,"Y1, Y2, Y3, Y5, Y6, Y7","Y1, Y2, Y3, Y5, Y6, Y7","Y1, Y3, Y5, Y7",v31 Sched db,,,,,0,0,0,,,,
91,,SP1,Gen4,1188361,11,0,,,595.7076023391813,218.2342614863469,247.8258223064875,0.13225847183368594,590,225,252,0.123,-6.765738513653105,-4.17417769351249,0.009258471833685944,8.67,-8.67,4.9,-4.9,12,-12,9,-9,0.03,-0.03,73.49177087786279,73.38436155635598,73.5,73.32227759338669,73.5999984741211,73.5999984741211,73.41658895049615,73.5,73.5999984741211,73.49146932448257,73.49478680940601,73.5,,808.4094796564906,9.55,0,,0,92,,,,73.49090922962536,210,"Y1, Y2, Y3, Y5, Y6, Y7","Y1, Y2, Y3, Y5, Y6, Y7","Y1, Y3, Y5, Y7",v31 Sched db,,,,,0,0,0,,,,
92,,SP1,Gen4,1188361,11,0,,0.0,595.7076023391813,218.2342614863469,247.8258223064875,0.13225847183368594,590,225,252,0.123,-6.765738513653105,-4.17417769351249,0.009258471833685944,8.67,-8.67,4.9,-4.9,12,-12,9,-9,0.03,-0.03,73.49177087786279,73.38436155635598,73.5,73.32227759338669,73.5999984741211,73.5999984741211,73.41658895049615,73.5,73.5999984741211,73.49146932448257,73.49478680940601,73.5,,808.4094796564906,9.55,0,0.0,0,93,,,,73.49090922962536,210,"Y1, Y2, Y3, Y5, Y6, Y7","Y1, Y2, Y3, Y5, Y6, Y7","Y1, Y3, Y5, Y7",v31 Sched db,,0.0,0.0,0.0,0,0,0,-2,1,0,0
93,,SP1,Gen4,1188361,11,0,,,595.7076023391813,218.2342614863469,247.8258223064875,0.13225847183368594,590,225,252,0.123,-6.765738513653105,-4.17417769351249,0.009258471833685944,8.67,-8.67,4.9,-4.9,12,-12,9,-9,0.03,-0.03,73.49177087786279,73.38436155635598,73.5,73.32227759338669,73.5999984741211,73.5999984741211,73.41658895049615,73.5,73.5999984741211,73.49146932448257,73.49478680940601,73.5,,808.4094796564906,9.55,0,,0,94,,,,73.49090922962536,210,"Y1, Y2, Y3, Y5, Y6, Y7","Y1, Y2, Y3, Y5, Y6, Y7","Y1, Y3, Y5, Y7",v31 Sched db,,,,,0,0,0,,,,
94,,SP1,Gen4,1188361,11,0,,0.0,595.7076023391813,218.2342614863469,247.8258223064875,0.13225847183368594,590,225,252,0.123,-6.765738513653105,-4.17417769351249,0.009258471833685944,8.67,-8.67,4.9,-4.9,12,-12,9,-9,0.03,-0.03,73.49177087786279,73.38436155635598,73.5,73.32227759338669,73.5999984741211,73.5999984741211,73.41658895049615,73.5,73.5999984741211,73.49146932448257,73.49478680940601,73.5,,808.4094796564906,9.55,0,0.0,0,95,,,,73.49090922962536,210,"Y1, Y2, Y3, Y5, Y6, Y7","Y1, Y2, Y3, Y5, Y6, Y7","Y1, Y3, Y5, Y7",v31 Sched db,,,,,0,0,0,,,,
95,,SP1,Gen4,1188361,11,0,,,595.7076023391813,218.2342614863469,247.8258223064875,0.13225847183368594,590,225,252,0.123,-6.765738513653105,-4.17417769351249,0.009258471833685944,8.67,-8.67,4.9,-4.9,12,-12,9,-9,0.03,-0.03,73.49177087786279,73.38436155635598,73.5,73.32227759338669,73.5999984741211,73.5999984741211,73.41658895049615,73.5,73.5999984741211,73.49146932448257,73.49478680940601,73.5,,808.4094796564906,9.55,0,,0,96,,,,73.49090922962536,210,"Y1, Y2, Y3, Y5, Y6, Y7","Y1, Y2, Y3, Y5, Y6, Y7","Y1, Y3, Y5, Y7",v31 Sched db,,0.0,0.0,0.0,0,0,0,-3,1,0,0
96,,SP1,Gen4,1188361,11,0,,0.0,595.7076023391813,218.2342614863469,247.8258223064875,0.13225847183368594,590,225,252,0.123,-6.765738513653105,-4.17417769351249,0.009258471833685944,8.67,-8.67,4.9,-4.9,12,-12,9,-9,0.03,-0.03,73.49177087786279,73.38436155635598,73.5,73.32227759338669,73.5999984741211,73.5999984741211,73.41658895049615,73.5,73.5999984741211,73.49146932448257,73.49478680940601,73.5,,808.4094796564906,9.55,0,0.0,0,97,,,,73.49090922962536,210,"Y1, Y2, Y3, Y5, Y6, Y7","Y1, Y2, Y3, Y5, Y6, Y7","Y1, Y3, Y5, Y7",v31 Sched db,,,,,0,0,0,,,,
97,,SP1,Gen4,1188361,11,0,,,595.7076023391813,218.2342614863469,247.8258223064875,0.13225847183368594,590,225,252,0.123,-6.765738513653105,-4.17417769351249,0.009258471833685944,8.67,-8.67,4.9,-4.9,12,-12,9,-9,0.03,-0.03,73.49177087786279,73.38436155635598,73.5,73.32227759338669,73.5999984741211,73.5999984741211,73.41658895049615,73.5,73.5999984741211,73.49146932448257,73.49478680940601,73.5,,808.4094796564906,9.55,0,,0,98,,,,73.49090922962536,210,"Y1, Y2, Y3, Y5, Y6, Y7","Y1, Y2, Y3, Y5, Y6, Y7","Y1, Y3, Y5, Y7",v31 Sched db,,,,,0,0,0,,,,
98,,SP1,Gen4,1188361,11,0,,0.0,595.7076023391813,218.2342614863469,247.8258223064875,0.13225847183368594,590,225,252,0.123,-6.765738513653105,-4.17417769351249,0.009258471833685944,8.67,-8.67,4.9,-4.9,12,-12,9,-9,0.03,-0.03,73.49177087786279,73.38436155635598,73.5,73.32227759338669,73.5999984741211,73.5999984741211,73.41658895049615,73.5,73.5999984741211,73.49146932448257,73.49478680940601,73.5,,808.4094796564906,9.55,0,0.0,0,99,,,,73.49090922962536,210,"Y1, Y2, Y3, Y5, Y6, Y7","Y1, Y2, Y3, Y5, Y6, Y7","Y1, Y3, Y5, Y7",v31 Sched db,,0.0,0.0,0.0,0,0,0,-4,1,0,0
99,,SP1,Gen4,1188361,11,0,,,595.7076023391813,218.2342614863469,247.8258223064875,0.13225847183368594,590,225,252,0.123,-6.765738513653105,-4.17417769351249,0.009258471833685944,8.67,-8.67,4.9,-4.9,12,-12,9,-9,0.03,-0.03,73.49177087786279,73.38436155635598,73.5,73.32227759338669,73.5999984741211,73.5999984741211,73.41658895049615,73.5,73.5999984741211,73.49146932448257,73.49478680940601,73.5,,808.4094796564906,9.55,0,,0,100,,,,73.49090922962536,210,"Y1, Y2, Y3, Y5, Y6, Y7","Y1, Y2, Y3, Y5, Y6, Y7","Y1, Y3, Y5, Y7",v31 Sched db,,,,,0,0,0,,,,
100,,SP1,Gen4,1188361,11,0,,0.0,595.7076023391813,218.2342614863469,247.8258223064875,0.13225847183368594,590,225,252,0.123,-6.765738513653105,-4.17417769351249,0.009258471833685944,8.67,-8.67,4.9,-4.9,12,-12,9,-9,0.03,-0.03,73.49177087786279,73.38436155635598,73.5,73.32227759338669,73.5999984741211,73.5999984741211,73.41658895049615,73.5,73.5999984741211,73.49146932448257,73.49478680940601,73.5,,808.4094796564906,9.55,0,0.0,0,101,,,,73.49090922962536,210,"Y1, Y2, Y3, Y5, Y6, Y7","Y1, Y2, Y3, Y5, Y6, Y7","Y1, Y3, Y5, Y7",v31 Sched db,,,,,0,0,0,,,,
101,,SP1,Gen4,1188361,11,0,,,595.7076023391813,218.2342614863469,247.8258223064875,0.13225847183368594,590,225,252,0.123,-6.765738513653105,-4.17417769351249,0.009258471833685944,8.67,-8.67,4.9,-4.9,12,-12,9,-9,0.03,-0.03,73.49177087786279,73.38436155635598,73.5,73.32227759338669,73.5999984741211,73.5999984741211,73.41658895049615,73.5,73.5999984741211,73.49146932448257,73.49478680940601,73.5,,808.4094796564906,9.55,0,,0,102,,,,73.49090922962536,210,"Y1, Y2, Y3, Y5, Y6, Y7","Y1, Y2, Y3, Y5, Y6, Y7","Y1, Y3, Y5, Y7",v31 Sched db,,0.0,0.0,0.0,0,0,0,-5,1,0,0
102,,SP1,Gen4,1188361,11,0,,0.0,595.7076023391813,218.2342614863469,247.8258223064875,0.13225847183368594,590,225,252,0.123,-6.765738513653105,-4.17417769351249,0.009258471833685944,8.67,-8.67,4.9,-4.9,12,-12,9,-9,0.03,-0.03,73.49177087786279,73.38436155635598,73.5,73.32227759338669,73.5999984741211,73.5999984741211,73.41658895049615,73.5,73.5999984741211,73.49146932448257,73.49478680940601,73.5,,808.4094796564906,9.55,0,0.0,0,103,,,,73.49090922962536,210,"Y1, Y2, Y3, Y5, Y6, Y7","Y1, Y2, Y3, Y5, Y6, Y7","Y1, Y3, Y5, Y7",v31 Sched db,,,,,0,0,0,,,,
103,,SP1,Gen4,1188361,11,0,,,595.7076023391813,218.2342614863469,247.8258223064875,0.13225847183368594,590,225,252,0.123,-6.765738513653105,-4.17417769351249,0.009258471833685944,8.67,-8.67,4.9,-4.9,12,-12,9,-9,0.03,-0.03,73.49177087786279,73.38436155635598,73.5,73.32227759338669,73.5999984741211,73.5999984741211,73.41658895049615,73.5,73.5999984741211,73.49146932448257,73.49478680940601,73.5,,808.4094796564906,9.55,0,,0,104,,,,73.49090922962536,210,"Y1, Y2, Y3, Y5, Y6, Y7","Y1, Y2, Y3, Y5, Y6, Y7","Y1, Y3, Y5, Y7",v31 Sched db,,,,,0,0,0,,,,
104,,SP1,Gen4,1188361,11,0,,0.0,595.7076023391813,218.2342614863469,247.8258223064875,0.13225847183368594,590,225,252,0.123,-6.765738513653105,-4.17417769351249,0.009258471833685944,8.67,-8.67,4.9,-4.9,12,-12,9,-9,0.03,-0.03,73.49177087786279,73.38436155635598,73.5,73.32227759338669,73.5999984741211,73.5999984741211,73.41658895049615,73.5,73.5999984741211,73.49146932448257,73.49478680940601,73.5,,808.4094796564906,9.55,0,0.0,0,105,,,,73.49090922962536,210,"Y1, Y2, Y3, Y5, Y6, Y7","Y1, Y2, Y3, Y5, Y6, Y7","Y1, Y3, Y5, Y7",v31 Sched db,,0.0,0.0,0.0,0,0,0,-6,1,0,0
105,,SP1,Gen4,1188361,11,0,,,595.7076023391813,218.2342614863469,247.8258223064875,0.13225847183368594,590,225,252,0.123,-6.765738513653105,-4.17417769351249,0.009258471833685944,8.67,-8.67,4.9,-4.9,12,-12,9,-9,0.03,-0.03,73.49177087786279,73.38436155635598,73.5,73.32227759338669,73.5999984741211,73.5999984741211,73.41658895049615,73.5,73.5999984741211,73.49146932448257,73.49478680940601,73.5,,808.4094796564906,9.55,0,,0,106,,,,73.49090922962536,210,"Y1, Y2, Y3, Y5, Y6, Y7","Y1, Y2, Y3, Y5, Y6, Y7","Y1, Y3, Y5, Y7",v31 Sched db,,,,,0,0,0,,,,
106,,SP1,Gen4,1188361,11,0,,0.0,595.7076023391813,218.2342614863469,247.8258223064875,0.13225847183368594,590,225,252,0.123,-6.765738513653105,-4.17417769351249,0.009258471833685944,8.67,-8.67,4.9,-4.9,12,-12,9,-9,0.03,-0.03,73.49177087786279,73.38436155635598,73.5,73.32227759338669,73.5999984741211,73.5999984741211,73.41658895049615,73.5,73.5999984741211,73.49146932448257,73.49478680940601,73.5,,808.4094796564906,9.55,0,0.0,0,107,,,,73.49090922962536,210,"Y1, Y2, Y3, Y5, Y6, Y7","Y1, Y2, Y3, Y5, Y6, Y7","Y1, Y3, Y5, Y7",v31 Sched db,,,,,0,0,0,,,,
107,,SP1,Gen4,1188361,11,0,,,595.7076023391813,218.2342614863469,247.8258223064875,0.13225847183368594,590,225,252,0.123,-6.765738513653105,-4.17417769351249,0.009258471833685944,8.67,-8.67,4.9,-4.9,12,-12,9,-9,0.03,-0.03,73.49177087786279,73.38436155635598,73.5,73.32227759338669,73.5999984741211,73.5999984741211,73.41658895049615,73.5,73.5999984741211,73.49146932448257,73.49478680940601,73.5,,808.4094796564906,9.55,0,,0,108,,,,73.49090922962536,210,"Y1, Y2, Y3, Y5, Y6, Y7","Y1, Y2, Y3, Y5, Y6, Y7","Y1, Y3, Y5, Y7",v31 Sched db,,0.0,0.0,0.0,0,0,0,-7,1,0,0
108,,SP1,Gen4,1188361,11,0,,0.0,595.7076023391813,218.2342614863469,247.8258223064875,0.13225847183368594,590,225,252,0.123,-6.765738513653105,-4.17417769351249,0.009258471833685944,8.67,-8.67,4.9,-4.9,12,-12,9,-9,0.03,-0.03,73.49177087786279,73.38436155635598,73.5,73.32227759338669,73.5999984741211,73.5999984741211,73.41658895049615,73.5,73.5999984741211,73.49146932448257,73.49478680940601,73.5,,808.4094796564906,9.55,0,0.0,0,109,,,,73.49090922962536,210,"Y1, Y2, Y3, Y5, Y6, Y7","Y1, Y2, Y3, Y5, Y6, Y7","Y1, Y3, Y5, Y7",v31 Sched db,,,,,0,0,0,,,,
109,,SP1,Gen4,1188361,11,0,,,595.7076023391813,218.2342614863469,247.8258223064875,0.13225847183368594,590,225,252,0.123,-6.765738513653105,-4.17417769351249,0.009258471833685944,8.67,-8.67,4.9,-4.9,12,-12,9,-9,0.03,-0.03,73.49177087786279,73.38436155635598,73.5,73.32227759338669,73.5999984741211,73.5999984741211,73.41658895049615,73.5,73.5999984741211,73.49146932448257,73.49478680940601,73.5,,808.4094796564906,9.55,0,,0,110,,,,73.49090922962536,210,"Y1, Y2, Y3, Y5, Y6, Y7","Y1, Y2, Y3, Y5, Y6, Y7","Y1, Y3, Y5, Y7",v31 Sched db,,,,,0,0,0,,,,
110,,SP1,Gen4,1188361,11,0,,0.0,595.7076023391813,218.2342614863469,247.8258223064875,0.13225847183368594,590,225,252,0.123,-6.765738513653105,-4.17417769351249,0.009258471833685944,8.67,-8.67,4.9,-4.9,12,-12,9,-9,0.03,-0.03,73.49177087786279,73.38436155635598,73.5,73.32227759338669,73.5999984741211,73.5999984741211,73.41658895049615,73.5,73.5999984741211,73.49146932448257,73.49478680940601,73.5,,808.4094796564906,9.55,0,0.0,0,111,,,,73.49090922962536,210,"Y1, Y2, Y3, Y5, Y6, Y7","Y1, Y2, Y3, Y5, Y6, Y7","Y1, Y3, Y5, Y7",v31 Sched db,,0.0,0.0,0.0,0,0,0,-8,1,2,0
111,,SP1,Gen4,1188361,11,0,,,595.7076023391813,218.2342614863469,247.8258223064875,0.13225847183368594,590,225,252,0.123,-6.765738513653105,-4.17417769351249,0.009258471833685944,8.67,-8.67,4.9,-4.9,12,-12,9,-9,0.03,-0.03,73.49177087786279,73.38436155635598,73.5,73.32227759338669,73.5999984741211,73.5999984741211,73.41658895049615,73.5,73.5999984741211,73.49146932448257,73.49478680940601,73.5,,808.4094796564906,9.55,0,,0,112,,,,73.49090922962536,210,"Y1, Y2, Y3, Y5, Y6, Y7","Y1, Y2, Y3, Y5, Y6, Y7","Y1, Y3, Y5, Y7",v31 Sched db,,,,,0,0,0,,,,
112,,SP1,Gen4,1188361,11,0,,0.0,595.7076023391813,218.2342614863469,247.8258223064875,0.13225847183368594,590,225,252,0.123,-6.765738513653105,-4.17417769351249,0.009258471833685944,8.67,-8.67,4.9,-4.9,12,-12,9,-9,0.03,-0.03,73.49177087786279,73.38436155635598,73.5,73.32227759338669,73.5999984741211,73.5999984741211,73.41658895049615,73.5,73.5999984741211,73.49146932448257,73.49478680940601,73.5,,808.4094796564906,9.55,0,0.0,0,113,,,,73.49090922962536,210,"Y1, Y2, Y3, Y5, Y6, Y7","Y1, Y2, Y3, Y5, Y6, Y7","Y1, Y3, Y5, Y7",v31 Sched db,,,,,0,0,0,,,,
113,,SP1,Gen4,1188361,11,0,,,595.7076023391813,218.2342614863469,247.8258223064875,0.13225847183368594,590,225,252,0.123,-6.765738513653105,-4.17417769351249,0.009258471833685944,8.67,-8.67,4.9,-4.9,12,-12,9,-9,0.03,-0.03,73.49177087786279,73.38436155635598,73.5,73.32227759338669,73.5999984741211,73.5999984741211,73.41658895049615,73.5,73.5999984741211,73.49146932448257,73.49478680940601,73.5,,808.4094796564906,9.55,0,,0,114,,,,73.49090922962536,210,"Y1, Y2, Y3, Y5, Y6, Y7","Y1, Y2, Y3, Y5, Y6, Y7","Y1, Y3, Y5, Y7",v31 Sched db,,0.0,0.0,0.0,0,0,0,-9,1,2,0
114,,SP1,Gen4,1188361,11,0,,0.0,595.7076023391813,218.2342614863469,247.8258223064875,0.13225847183368594,590,225,252,0.123,-6.765738513653105,-4.17417769351249,0.009258471833685944,8.67,-8.67,4.9,-4.9,12,-12,9,-9,0.03,-0.03,73.49177087786279,73.38436155635598,73.5,73.32227759338669,73.5999984741211,73.5999984741211,73.41658895049615,73.5,73.5999984741211,73.49146932448257,73.49478680940601,73.5,,808.4094796564906,9.55,0,0.0,0,115,,,,73.49090922962536,210,"Y1, Y2, Y3, Y5, Y6, Y7","Y1, Y2, Y3, Y5, Y6, Y7","Y1, Y3, Y5, Y7",v31 Sched db,,,,,0,0,0,,,,
115,,SP1,Gen4,1188361,11,0,,,595.7076023391813,218.2342614863469,247.8258223064875,0.13225847183368594,590,225,252,0.123,-6.765738513653105,-4.17417769351249,0.009258471833685944,8.67,-8.67,4.9,-4.9,12,-12,9,-9,0.03,-0.03,73.49177087786279,73.38436155635598,73.5,73.32227759338669,73.5999984741211,73.5999984741211,73.41658895049615,73.5,73.5999984741211,73.49146932448257,73.49478680940601,73.5,,808.4094796564906,9.55,0,,0,116,,,,73.49090922962536,210,"Y1, Y2, Y3, Y5, Y6, Y7","Y1, Y2, Y3, Y5, Y6, Y7","Y1, Y3, Y5, Y7",v31 Sched db,,,,,0,0,0,,,,
116,,SP1,Gen4,1188361,11,0,,0.0,595.7076023391813,218.2342614863469,247.8258223064875,0.13225847183368594,590,225,252,0.123,-6.765738513653105,-4.17417769351249,0.009258471833685944,8.67,-8.67,4.9,-4.9,12,-12,9,-9,0.03,-0.03,73.49177087786279,73.38436155635598,73.5,73.32227759338669,73.5999984741211,73.5999984741211,73.41658895049615,73.5,73.5999984741211,73.49146932448257,73.49478680940601,73.5,,808.4094796564906,9.55,0,0.0,0,117,,,,73.49090922962536,210,"Y1, Y2, Y3, Y5, Y6, Y7","Y1, Y2, Y3, Y5, Y6, Y7","Y1, Y3, Y5, Y7",v31 Sched db,,0.0,0.0,0.0,0,0,0,-10,1,2,0
117,,SP1,Gen4,1188361,11,0,,,595.7076023391813,218.2342614863469,247.8258223064875,0.13225847183368594,590,225,252,0.123,-6.765738513653105,-4.17417769351249,0.009258471833685944,8.67,-8.67,4.9,-4.9,12,-12,9,-9,0.03,-0.03,73.49177087786279,73.38436155635598,73.5,73.32227759338669,73.5999984741211,73.5999984741211,73.41658895049615,73.5,73.5999984741211,73.49146932448257,73.49478680940601,73.5,,808.4094796564906,9.55,0,,0,118,,,,73.49090922962536,210,"Y1, Y2, Y3, Y5, Y6, Y7","Y1, Y2, Y3, Y5, Y6, Y7","Y1, Y3, Y5, Y7",v31 Sched db,,,,,0,0,0,,,,
118,,SP1,Gen4,1188361,11,0,,0.0,595.7076023391813,218.2342614863469,247.8258223064875,0.13225847183368594,590,225,252,0.123,-6.765738513653105,-4.17417769351249,0.009258471833685944,8.67,-8.67,4.9,-4.9,12,-12,9,-9,0.03,-0.03,73.49177087786279,73.38436155635598,73.5,73.32227759338669,73.5999984741211,73.5999984741211,73.41658895049615,73.5,73.5999984741211,73.49146932448257,73.49478680940601,73.5,,808.4094796564906,9.55,0,0.0,0,119,,,,73.49090922962536,210,"Y1, Y2, Y3, Y5, Y6, Y7","Y1, Y2, Y3, Y5, Y6, Y7","Y1, Y3, Y5, Y7",v31 Sched db,,,,,0,0,0,,,,
119,,SP1,Gen4,1188361,11,0,,,595.7076023391813,218.2342614863469,247.8258223064875,0.13225847183368594,590,225,252,0.123,-6.765738513653105,-4.17417769351249,0.009258471833685944,8.67,-8.67,4.9,-4.9,12,-12,9,-9,0.03,-0.03,73.49177087786279,73.38436155635598,73.5,73.32227759338669,73.5999984741211,73.5999984741211,73.41658895049615,73.5,73.5999984741211,73.49146932448257,73.49478680940601,73.5,,808.4094796564906,9.55,0,,0,120,,,,73.49090922962536,210,"Y1, Y2, Y3, Y5, Y6, Y7","Y1, Y2, Y3, Y5, Y6, Y7","Y1, Y3, Y5, Y7",v31 Sched db,,0.0,0.0,0.0,0,0,0,-11,1,2,0
